%YAML 1.1
%TAG !u! tag:unity3d.com,2011:
--- !u!29 &1
OcclusionCullingSettings:
  m_ObjectHideFlags: 0
  serializedVersion: 2
  m_OcclusionBakeSettings:
    smallestOccluder: 5
    smallestHole: 0.25
    backfaceThreshold: 100
  m_SceneGUID: 00000000000000000000000000000000
  m_OcclusionCullingData: {fileID: 0}
--- !u!104 &2
RenderSettings:
  m_ObjectHideFlags: 0
  serializedVersion: 9
  m_Fog: 1
  m_FogColor: {r: 0.8688382, g: 0.8962264, b: 0.4523407, a: 1}
  m_FogMode: 3
  m_FogDensity: 0.008
  m_LinearFogStart: 0
  m_LinearFogEnd: 300
  m_AmbientSkyColor: {r: 0.7407885, g: 0.7873465, b: 0.8773585, a: 1}
  m_AmbientEquatorColor: {r: 0.509434, g: 0.6792453, b: 0.6669972, a: 1}
  m_AmbientGroundColor: {r: 0.28617838, g: 0.5566038, b: 0.5099282, a: 1}
  m_AmbientIntensity: 1
  m_AmbientMode: 1
  m_SubtractiveShadowColor: {r: 0.42, g: 0.478, b: 0.627, a: 1}
  m_SkyboxMaterial: {fileID: 10304, guid: 0000000000000000f000000000000000, type: 0}
  m_HaloStrength: 0.482
  m_FlareStrength: 1
  m_FlareFadeSpeed: 3
  m_HaloTexture: {fileID: 0}
  m_SpotCookie: {fileID: 10001, guid: 0000000000000000e000000000000000, type: 0}
  m_DefaultReflectionMode: 0
  m_DefaultReflectionResolution: 128
  m_ReflectionBounces: 1
  m_ReflectionIntensity: 1
  m_CustomReflection: {fileID: 0}
  m_Sun: {fileID: 0}
  m_IndirectSpecularColor: {r: 0.1744198, g: 0.21814081, b: 0.30037558, a: 1}
  m_UseRadianceAmbientProbe: 0
--- !u!157 &3
LightmapSettings:
  m_ObjectHideFlags: 0
  serializedVersion: 12
  m_GIWorkflowMode: 1
  m_GISettings:
    serializedVersion: 2
    m_BounceScale: 1
    m_IndirectOutputScale: 1
    m_AlbedoBoost: 1
    m_EnvironmentLightingMode: 0
    m_EnableBakedLightmaps: 1
    m_EnableRealtimeLightmaps: 0
  m_LightmapEditorSettings:
    serializedVersion: 12
    m_Resolution: 2
    m_BakeResolution: 40
    m_AtlasSize: 1024
    m_AO: 0
    m_AOMaxDistance: 1
    m_CompAOExponent: 1
    m_CompAOExponentDirect: 0
    m_ExtractAmbientOcclusion: 0
    m_Padding: 2
    m_LightmapParameters: {fileID: 0}
    m_LightmapsBakeMode: 1
    m_TextureCompression: 1
    m_FinalGather: 0
    m_FinalGatherFiltering: 1
    m_FinalGatherRayCount: 256
    m_ReflectionCompression: 2
    m_MixedBakeMode: 2
    m_BakeBackend: 1
    m_PVRSampling: 1
    m_PVRDirectSampleCount: 32
    m_PVRSampleCount: 512
    m_PVRBounces: 2
    m_PVREnvironmentSampleCount: 256
    m_PVREnvironmentReferencePointCount: 2048
    m_PVRFilteringMode: 1
    m_PVRDenoiserTypeDirect: 1
    m_PVRDenoiserTypeIndirect: 1
    m_PVRDenoiserTypeAO: 1
    m_PVRFilterTypeDirect: 0
    m_PVRFilterTypeIndirect: 0
    m_PVRFilterTypeAO: 0
    m_PVREnvironmentMIS: 1
    m_PVRCulling: 1
    m_PVRFilteringGaussRadiusDirect: 1
    m_PVRFilteringGaussRadiusIndirect: 5
    m_PVRFilteringGaussRadiusAO: 2
    m_PVRFilteringAtrousPositionSigmaDirect: 0.5
    m_PVRFilteringAtrousPositionSigmaIndirect: 2
    m_PVRFilteringAtrousPositionSigmaAO: 1
    m_ExportTrainingData: 0
    m_TrainingDataDestination: TrainingData
    m_LightProbeSampleCountMultiplier: 4
  m_LightingDataAsset: {fileID: 0}
  m_LightingSettings: {fileID: 0}
--- !u!196 &4
NavMeshSettings:
  serializedVersion: 2
  m_ObjectHideFlags: 0
  m_BuildSettings:
    serializedVersion: 2
    agentTypeID: 0
    agentRadius: 1
    agentHeight: 2
    agentSlope: 20
    agentClimb: 0.2
    ledgeDropHeight: 0
    maxJumpAcrossDistance: 0
    minRegionArea: 2
    manualCellSize: 0
    cellSize: 0.33333334
    manualTileSize: 0
    tileSize: 256
    accuratePlacement: 0
    maxJobWorkers: 0
    preserveTilesOutsideBounds: 0
    debug:
      m_Flags: 0
  m_NavMeshData: {fileID: 23800000, guid: d61eae2e6c56097468263b22feefaff4, type: 2}
--- !u!1 &95612405
GameObject:
  m_ObjectHideFlags: 0
  m_CorrespondingSourceObject: {fileID: 0}
  m_PrefabInstance: {fileID: 0}
  m_PrefabAsset: {fileID: 0}
  serializedVersion: 6
  m_Component:
  - component: {fileID: 95612406}
  - component: {fileID: 95612407}
  m_Layer: 0
  m_Name: UserControl
  m_TagString: Untagged
  m_Icon: {fileID: 0}
  m_NavMeshLayer: 0
  m_StaticEditorFlags: 0
  m_IsActive: 1
--- !u!4 &95612406
Transform:
  m_ObjectHideFlags: 0
  m_CorrespondingSourceObject: {fileID: 0}
  m_PrefabInstance: {fileID: 0}
  m_PrefabAsset: {fileID: 0}
  m_GameObject: {fileID: 95612405}
  m_LocalRotation: {x: 0, y: 0, z: 0, w: 1}
  m_LocalPosition: {x: 0.6390073, y: -1.6441813, z: -2.7487514}
  m_LocalScale: {x: 1, y: 1, z: 1}
  m_ConstrainProportionsScale: 0
  m_Children: []
  m_Father: {fileID: 0}
  m_RootOrder: 2
  m_LocalEulerAnglesHint: {x: 0, y: 0, z: 0}
--- !u!114 &95612407
MonoBehaviour:
  m_ObjectHideFlags: 0
  m_CorrespondingSourceObject: {fileID: 0}
  m_PrefabInstance: {fileID: 0}
  m_PrefabAsset: {fileID: 0}
  m_GameObject: {fileID: 95612405}
  m_Enabled: 1
  m_EditorHideFlags: 0
  m_Script: {fileID: 11500000, guid: 199e5487dc20dbe4b906a0f91f07d50e, type: 3}
  m_Name: 
  m_EditorClassIdentifier: 
  GameCamera: {fileID: 983736901}
  PanSpeed: 10
  Marker: {fileID: 1037664011}
--- !u!1001 &98716585
PrefabInstance:
  m_ObjectHideFlags: 0
  serializedVersion: 2
  m_Modification:
    m_TransformParent: {fileID: 0}
    m_Modifications:
    - target: {fileID: 8974776837463427655, guid: 2a70994ccfb8c10458381d3fb3626547, type: 3}
      propertyPath: m_RootOrder
      value: 8
      objectReference: {fileID: 0}
    - target: {fileID: 8974776837463427655, guid: 2a70994ccfb8c10458381d3fb3626547, type: 3}
      propertyPath: m_LocalPosition.x
      value: 9.76
      objectReference: {fileID: 0}
    - target: {fileID: 8974776837463427655, guid: 2a70994ccfb8c10458381d3fb3626547, type: 3}
      propertyPath: m_LocalPosition.y
      value: 0.149
      objectReference: {fileID: 0}
    - target: {fileID: 8974776837463427655, guid: 2a70994ccfb8c10458381d3fb3626547, type: 3}
      propertyPath: m_LocalPosition.z
      value: 0.43
      objectReference: {fileID: 0}
    - target: {fileID: 8974776837463427655, guid: 2a70994ccfb8c10458381d3fb3626547, type: 3}
      propertyPath: m_LocalRotation.w
      value: 1
      objectReference: {fileID: 0}
    - target: {fileID: 8974776837463427655, guid: 2a70994ccfb8c10458381d3fb3626547, type: 3}
      propertyPath: m_LocalRotation.x
      value: 0
      objectReference: {fileID: 0}
    - target: {fileID: 8974776837463427655, guid: 2a70994ccfb8c10458381d3fb3626547, type: 3}
      propertyPath: m_LocalRotation.y
      value: 0
      objectReference: {fileID: 0}
    - target: {fileID: 8974776837463427655, guid: 2a70994ccfb8c10458381d3fb3626547, type: 3}
      propertyPath: m_LocalRotation.z
      value: 0
      objectReference: {fileID: 0}
    - target: {fileID: 8974776837463427655, guid: 2a70994ccfb8c10458381d3fb3626547, type: 3}
      propertyPath: m_LocalEulerAnglesHint.x
      value: 0
      objectReference: {fileID: 0}
    - target: {fileID: 8974776837463427655, guid: 2a70994ccfb8c10458381d3fb3626547, type: 3}
      propertyPath: m_LocalEulerAnglesHint.y
      value: 0
      objectReference: {fileID: 0}
    - target: {fileID: 8974776837463427655, guid: 2a70994ccfb8c10458381d3fb3626547, type: 3}
      propertyPath: m_LocalEulerAnglesHint.z
      value: 0
      objectReference: {fileID: 0}
    - target: {fileID: 8974776837463427705, guid: 2a70994ccfb8c10458381d3fb3626547, type: 3}
      propertyPath: m_Name
      value: TransporterUnit (1)
      objectReference: {fileID: 0}
    m_RemovedComponents: []
  m_SourcePrefab: {fileID: 100100000, guid: 2a70994ccfb8c10458381d3fb3626547, type: 3}
--- !u!1 &130936400
GameObject:
  m_ObjectHideFlags: 0
  m_CorrespondingSourceObject: {fileID: 0}
  m_PrefabInstance: {fileID: 0}
  m_PrefabAsset: {fileID: 0}
  serializedVersion: 6
  m_Component:
  - component: {fileID: 130936402}
  - component: {fileID: 130936401}
  m_Layer: 0
  m_Name: PostProcessing
  m_TagString: Untagged
  m_Icon: {fileID: 0}
  m_NavMeshLayer: 0
  m_StaticEditorFlags: 0
  m_IsActive: 1
--- !u!114 &130936401
MonoBehaviour:
  m_ObjectHideFlags: 0
  m_CorrespondingSourceObject: {fileID: 0}
  m_PrefabInstance: {fileID: 0}
  m_PrefabAsset: {fileID: 0}
  m_GameObject: {fileID: 130936400}
  m_Enabled: 1
  m_EditorHideFlags: 0
  m_Script: {fileID: 11500000, guid: 172515602e62fb746b5d573b38a5fe58, type: 3}
  m_Name: 
  m_EditorClassIdentifier: 
  m_IsGlobal: 1
  priority: 0
  blendDistance: 0
  weight: 1
  sharedProfile: {fileID: 11400000, guid: 10fc4df2da32a41aaa32d77bc913491c, type: 2}
--- !u!4 &130936402
Transform:
  m_ObjectHideFlags: 0
  m_CorrespondingSourceObject: {fileID: 0}
  m_PrefabInstance: {fileID: 0}
  m_PrefabAsset: {fileID: 0}
  m_GameObject: {fileID: 130936400}
  m_LocalRotation: {x: -0, y: -0, z: -0, w: 1}
  m_LocalPosition: {x: -4.1190863, y: -4.8976583, z: -10.49848}
  m_LocalScale: {x: 1, y: 1, z: 1}
  m_ConstrainProportionsScale: 0
  m_Children: []
  m_Father: {fileID: 1101146666}
  m_RootOrder: 1
  m_LocalEulerAnglesHint: {x: 0, y: 0, z: 0}
--- !u!1 &160539417 stripped
GameObject:
  m_CorrespondingSourceObject: {fileID: 919132149155446097, guid: 96f8402ad64f6864baee4099c68c7f24, type: 3}
  m_PrefabInstance: {fileID: 604271679}
  m_PrefabAsset: {fileID: 0}
--- !u!64 &160539418
MeshCollider:
  m_ObjectHideFlags: 0
  m_CorrespondingSourceObject: {fileID: 0}
  m_PrefabInstance: {fileID: 0}
  m_PrefabAsset: {fileID: 0}
  m_GameObject: {fileID: 160539417}
  m_Material: {fileID: 0}
  m_IsTrigger: 0
  m_Enabled: 1
  serializedVersion: 4
  m_Convex: 0
  m_CookingOptions: 30
  m_Mesh: {fileID: 7191606650887904448, guid: 96f8402ad64f6864baee4099c68c7f24, type: 3}
--- !u!1 &200090842
GameObject:
  m_ObjectHideFlags: 0
  m_CorrespondingSourceObject: {fileID: 0}
  m_PrefabInstance: {fileID: 0}
  m_PrefabAsset: {fileID: 0}
  serializedVersion: 6
  m_Component:
  - component: {fileID: 200090843}
  m_Layer: 0
  m_Name: Environment
  m_TagString: Untagged
  m_Icon: {fileID: 0}
  m_NavMeshLayer: 0
  m_StaticEditorFlags: 4294967295
  m_IsActive: 1
--- !u!4 &200090843
Transform:
  m_ObjectHideFlags: 0
  m_CorrespondingSourceObject: {fileID: 0}
  m_PrefabInstance: {fileID: 0}
  m_PrefabAsset: {fileID: 0}
  m_GameObject: {fileID: 200090842}
  m_LocalRotation: {x: 0, y: 0, z: 0, w: 1}
  m_LocalPosition: {x: 0, y: 0, z: 0}
  m_LocalScale: {x: 1, y: 1, z: 1}
  m_ConstrainProportionsScale: 0
  m_Children:
  - {fileID: 1195807374}
  - {fileID: 1501294180}
  - {fileID: 418989262}
  - {fileID: 1022571338}
  - {fileID: 1007523128}
  m_Father: {fileID: 0}
  m_RootOrder: 5
  m_LocalEulerAnglesHint: {x: 0, y: 0, z: 0}
--- !u!1 &336222932
GameObject:
  m_ObjectHideFlags: 0
  m_CorrespondingSourceObject: {fileID: 0}
  m_PrefabInstance: {fileID: 0}
  m_PrefabAsset: {fileID: 0}
  serializedVersion: 6
  m_Component:
  - component: {fileID: 336222933}
  - component: {fileID: 336222935}
  - component: {fileID: 336222934}
  m_Layer: 5
  m_Name: Text
  m_TagString: Untagged
  m_Icon: {fileID: 0}
  m_NavMeshLayer: 0
  m_StaticEditorFlags: 0
  m_IsActive: 1
--- !u!224 &336222933
RectTransform:
  m_ObjectHideFlags: 0
  m_CorrespondingSourceObject: {fileID: 0}
  m_PrefabInstance: {fileID: 0}
  m_PrefabAsset: {fileID: 0}
  m_GameObject: {fileID: 336222932}
  m_LocalRotation: {x: 0, y: 0, z: 0, w: 1}
  m_LocalPosition: {x: 0, y: 0, z: 0}
  m_LocalScale: {x: 1, y: 1, z: 1}
  m_ConstrainProportionsScale: 0
  m_Children: []
  m_Father: {fileID: 1936444378}
  m_RootOrder: 0
  m_LocalEulerAnglesHint: {x: 0, y: 0, z: 0}
  m_AnchorMin: {x: 0, y: 1}
  m_AnchorMax: {x: 1, y: 1}
  m_AnchoredPosition: {x: 0, y: -5}
  m_SizeDelta: {x: -10, y: 20}
  m_Pivot: {x: 0.5, y: 1}
--- !u!114 &336222934
MonoBehaviour:
  m_ObjectHideFlags: 0
  m_CorrespondingSourceObject: {fileID: 0}
  m_PrefabInstance: {fileID: 0}
  m_PrefabAsset: {fileID: 0}
  m_GameObject: {fileID: 336222932}
  m_Enabled: 1
  m_EditorHideFlags: 0
  m_Script: {fileID: 11500000, guid: 5f7201a12d95ffc409449d95f23cf332, type: 3}
  m_Name: 
  m_EditorClassIdentifier: 
  m_Material: {fileID: 0}
  m_Color: {r: 0.19607843, g: 0.19607843, b: 0.19607843, a: 1}
  m_RaycastTarget: 1
  m_RaycastPadding: {x: 0, y: 0, z: 0, w: 0}
  m_Maskable: 1
  m_OnCullStateChanged:
    m_PersistentCalls:
      m_Calls: []
  m_FontData:
    m_Font: {fileID: 10102, guid: 0000000000000000e000000000000000, type: 0}
    m_FontSize: 14
    m_FontStyle: 0
    m_BestFit: 0
    m_MinSize: 10
    m_MaxSize: 40
    m_Alignment: 0
    m_AlignByGeometry: 0
    m_RichText: 1
    m_HorizontalOverflow: 0
    m_VerticalOverflow: 0
    m_LineSpacing: 1
  m_Text: Content
--- !u!222 &336222935
CanvasRenderer:
  m_ObjectHideFlags: 0
  m_CorrespondingSourceObject: {fileID: 0}
  m_PrefabInstance: {fileID: 0}
  m_PrefabAsset: {fileID: 0}
  m_GameObject: {fileID: 336222932}
  m_CullTransparentMesh: 1
--- !u!1 &418989261
GameObject:
  m_ObjectHideFlags: 0
  m_CorrespondingSourceObject: {fileID: 0}
  m_PrefabInstance: {fileID: 0}
  m_PrefabAsset: {fileID: 0}
  serializedVersion: 6
  m_Component:
  - component: {fileID: 418989262}
  m_Layer: 0
  m_Name: Rack
  m_TagString: Untagged
  m_Icon: {fileID: 0}
  m_NavMeshLayer: 0
  m_StaticEditorFlags: 4294967295
  m_IsActive: 1
--- !u!4 &418989262
Transform:
  m_ObjectHideFlags: 0
  m_CorrespondingSourceObject: {fileID: 0}
  m_PrefabInstance: {fileID: 0}
  m_PrefabAsset: {fileID: 0}
  m_GameObject: {fileID: 418989261}
  m_LocalRotation: {x: -0, y: -0.37124974, z: -0, w: 0.928533}
  m_LocalPosition: {x: -9.36, y: 0, z: -6.7}
  m_LocalScale: {x: 1, y: 1, z: 1}
  m_ConstrainProportionsScale: 0
  m_Children:
  - {fileID: 1919318405}
  - {fileID: 2002626038}
  - {fileID: 1138522500}
  m_Father: {fileID: 200090843}
  m_RootOrder: 2
  m_LocalEulerAnglesHint: {x: 0, y: -43.585, z: 0}
--- !u!1 &443605825
GameObject:
  m_ObjectHideFlags: 0
  m_CorrespondingSourceObject: {fileID: 0}
  m_PrefabInstance: {fileID: 0}
  m_PrefabAsset: {fileID: 0}
  serializedVersion: 6
  m_Component:
  - component: {fileID: 443605827}
  - component: {fileID: 443605826}
  m_Layer: 0
  m_Name: Main Manager
  m_TagString: Untagged
  m_Icon: {fileID: 0}
  m_NavMeshLayer: 0
  m_StaticEditorFlags: 0
  m_IsActive: 1
--- !u!114 &443605826
MonoBehaviour:
  m_ObjectHideFlags: 0
  m_CorrespondingSourceObject: {fileID: 0}
  m_PrefabInstance: {fileID: 0}
  m_PrefabAsset: {fileID: 0}
  m_GameObject: {fileID: 443605825}
  m_Enabled: 1
  m_EditorHideFlags: 0
  m_Script: {fileID: 11500000, guid: 99491e03d931d0143afa96ceb932f75a, type: 3}
  m_Name: 
  m_EditorClassIdentifier: 
  TeamColor: {r: 0, g: 0, b: 0, a: 0}
--- !u!4 &443605827
Transform:
  m_ObjectHideFlags: 0
  m_CorrespondingSourceObject: {fileID: 0}
  m_PrefabInstance: {fileID: 0}
  m_PrefabAsset: {fileID: 0}
  m_GameObject: {fileID: 443605825}
  m_LocalRotation: {x: 0, y: 0, z: 0, w: 1}
  m_LocalPosition: {x: 550.1418, y: 281.38202, z: -13.252466}
  m_LocalScale: {x: 1, y: 1, z: 1}
  m_ConstrainProportionsScale: 0
  m_Children: []
  m_Father: {fileID: 0}
  m_RootOrder: 13
  m_LocalEulerAnglesHint: {x: 0, y: 0, z: 0}
--- !u!1001 &604271679
PrefabInstance:
  m_ObjectHideFlags: 0
  serializedVersion: 2
  m_Modification:
    m_TransformParent: {fileID: 200090843}
    m_Modifications:
    - target: {fileID: -8679921383154817045, guid: 96f8402ad64f6864baee4099c68c7f24, type: 3}
      propertyPath: m_RootOrder
      value: 0
      objectReference: {fileID: 0}
    - target: {fileID: -8679921383154817045, guid: 96f8402ad64f6864baee4099c68c7f24, type: 3}
      propertyPath: m_LocalPosition.x
      value: 0
      objectReference: {fileID: 0}
    - target: {fileID: -8679921383154817045, guid: 96f8402ad64f6864baee4099c68c7f24, type: 3}
      propertyPath: m_LocalPosition.y
      value: 6
      objectReference: {fileID: 0}
    - target: {fileID: -8679921383154817045, guid: 96f8402ad64f6864baee4099c68c7f24, type: 3}
      propertyPath: m_LocalPosition.z
      value: 7.55
      objectReference: {fileID: 0}
    - target: {fileID: -8679921383154817045, guid: 96f8402ad64f6864baee4099c68c7f24, type: 3}
      propertyPath: m_LocalRotation.w
      value: 1
      objectReference: {fileID: 0}
    - target: {fileID: -8679921383154817045, guid: 96f8402ad64f6864baee4099c68c7f24, type: 3}
      propertyPath: m_LocalRotation.x
      value: -0
      objectReference: {fileID: 0}
    - target: {fileID: -8679921383154817045, guid: 96f8402ad64f6864baee4099c68c7f24, type: 3}
      propertyPath: m_LocalRotation.y
      value: -0
      objectReference: {fileID: 0}
    - target: {fileID: -8679921383154817045, guid: 96f8402ad64f6864baee4099c68c7f24, type: 3}
      propertyPath: m_LocalRotation.z
      value: -0
      objectReference: {fileID: 0}
    - target: {fileID: -8679921383154817045, guid: 96f8402ad64f6864baee4099c68c7f24, type: 3}
      propertyPath: m_LocalEulerAnglesHint.x
      value: 0
      objectReference: {fileID: 0}
    - target: {fileID: -8679921383154817045, guid: 96f8402ad64f6864baee4099c68c7f24, type: 3}
      propertyPath: m_LocalEulerAnglesHint.y
      value: 0
      objectReference: {fileID: 0}
    - target: {fileID: -8679921383154817045, guid: 96f8402ad64f6864baee4099c68c7f24, type: 3}
      propertyPath: m_LocalEulerAnglesHint.z
      value: 0
      objectReference: {fileID: 0}
    - target: {fileID: -7511558181221131132, guid: 96f8402ad64f6864baee4099c68c7f24, type: 3}
      propertyPath: m_CastShadows
      value: 2
      objectReference: {fileID: 0}
    - target: {fileID: -7511558181221131132, guid: 96f8402ad64f6864baee4099c68c7f24, type: 3}
      propertyPath: m_Materials.Array.data[0]
      value: 
      objectReference: {fileID: 2100000, guid: f4c8a23267bd4fa429c38f0fd9924bdf, type: 2}
    - target: {fileID: 919132149155446097, guid: 96f8402ad64f6864baee4099c68c7f24, type: 3}
      propertyPath: m_Name
      value: Hangar
      objectReference: {fileID: 0}
    - target: {fileID: 919132149155446097, guid: 96f8402ad64f6864baee4099c68c7f24, type: 3}
      propertyPath: m_StaticEditorFlags
      value: 4294967295
      objectReference: {fileID: 0}
    m_RemovedComponents: []
  m_SourcePrefab: {fileID: 100100000, guid: 96f8402ad64f6864baee4099c68c7f24, type: 3}
--- !u!1001 &650563489
PrefabInstance:
  m_ObjectHideFlags: 0
  serializedVersion: 2
  m_Modification:
    m_TransformParent: {fileID: 1022571338}
    m_Modifications:
    - target: {fileID: 7134766800129261606, guid: 79d7c88d232401041a7cf2c8adafb877, type: 3}
      propertyPath: m_Name
      value: Rack Variant
      objectReference: {fileID: 0}
    - target: {fileID: 7514282602740898460, guid: 79d7c88d232401041a7cf2c8adafb877, type: 3}
      propertyPath: m_RootOrder
      value: 1
      objectReference: {fileID: 0}
    - target: {fileID: 7514282602740898460, guid: 79d7c88d232401041a7cf2c8adafb877, type: 3}
      propertyPath: m_LocalPosition.x
      value: -0.24999964
      objectReference: {fileID: 0}
    - target: {fileID: 7514282602740898460, guid: 79d7c88d232401041a7cf2c8adafb877, type: 3}
      propertyPath: m_LocalPosition.y
      value: -0.03097248
      objectReference: {fileID: 0}
    - target: {fileID: 7514282602740898460, guid: 79d7c88d232401041a7cf2c8adafb877, type: 3}
      propertyPath: m_LocalPosition.z
      value: 1.0899999
      objectReference: {fileID: 0}
    - target: {fileID: 7514282602740898460, guid: 79d7c88d232401041a7cf2c8adafb877, type: 3}
      propertyPath: m_LocalRotation.w
      value: 1
      objectReference: {fileID: 0}
    - target: {fileID: 7514282602740898460, guid: 79d7c88d232401041a7cf2c8adafb877, type: 3}
      propertyPath: m_LocalRotation.x
      value: -0
      objectReference: {fileID: 0}
    - target: {fileID: 7514282602740898460, guid: 79d7c88d232401041a7cf2c8adafb877, type: 3}
      propertyPath: m_LocalRotation.y
      value: -0.000000014901161
      objectReference: {fileID: 0}
    - target: {fileID: 7514282602740898460, guid: 79d7c88d232401041a7cf2c8adafb877, type: 3}
      propertyPath: m_LocalRotation.z
      value: -0
      objectReference: {fileID: 0}
    - target: {fileID: 7514282602740898460, guid: 79d7c88d232401041a7cf2c8adafb877, type: 3}
      propertyPath: m_LocalEulerAnglesHint.x
      value: 0
      objectReference: {fileID: 0}
    - target: {fileID: 7514282602740898460, guid: 79d7c88d232401041a7cf2c8adafb877, type: 3}
      propertyPath: m_LocalEulerAnglesHint.y
      value: 0
      objectReference: {fileID: 0}
    - target: {fileID: 7514282602740898460, guid: 79d7c88d232401041a7cf2c8adafb877, type: 3}
      propertyPath: m_LocalEulerAnglesHint.z
      value: 0
      objectReference: {fileID: 0}
    m_RemovedComponents: []
  m_SourcePrefab: {fileID: 100100000, guid: 79d7c88d232401041a7cf2c8adafb877, type: 3}
--- !u!4 &650563490 stripped
Transform:
  m_CorrespondingSourceObject: {fileID: 7514282602740898460, guid: 79d7c88d232401041a7cf2c8adafb877, type: 3}
  m_PrefabInstance: {fileID: 650563489}
  m_PrefabAsset: {fileID: 0}
--- !u!1001 &848730833
PrefabInstance:
  m_ObjectHideFlags: 0
  serializedVersion: 2
  m_Modification:
    m_TransformParent: {fileID: 1022571338}
    m_Modifications:
    - target: {fileID: 7134766800129261606, guid: 79d7c88d232401041a7cf2c8adafb877, type: 3}
      propertyPath: m_Name
      value: Rack Variant (1)
      objectReference: {fileID: 0}
    - target: {fileID: 7514282602740898460, guid: 79d7c88d232401041a7cf2c8adafb877, type: 3}
      propertyPath: m_RootOrder
      value: 2
      objectReference: {fileID: 0}
    - target: {fileID: 7514282602740898460, guid: 79d7c88d232401041a7cf2c8adafb877, type: 3}
      propertyPath: m_LocalPosition.x
      value: -0.24999928
      objectReference: {fileID: 0}
    - target: {fileID: 7514282602740898460, guid: 79d7c88d232401041a7cf2c8adafb877, type: 3}
      propertyPath: m_LocalPosition.y
      value: -0.03097248
      objectReference: {fileID: 0}
    - target: {fileID: 7514282602740898460, guid: 79d7c88d232401041a7cf2c8adafb877, type: 3}
      propertyPath: m_LocalPosition.z
      value: -1.9099998
      objectReference: {fileID: 0}
    - target: {fileID: 7514282602740898460, guid: 79d7c88d232401041a7cf2c8adafb877, type: 3}
      propertyPath: m_LocalRotation.w
      value: 1
      objectReference: {fileID: 0}
    - target: {fileID: 7514282602740898460, guid: 79d7c88d232401041a7cf2c8adafb877, type: 3}
      propertyPath: m_LocalRotation.x
      value: -0
      objectReference: {fileID: 0}
    - target: {fileID: 7514282602740898460, guid: 79d7c88d232401041a7cf2c8adafb877, type: 3}
      propertyPath: m_LocalRotation.y
      value: -0.000000014901161
      objectReference: {fileID: 0}
    - target: {fileID: 7514282602740898460, guid: 79d7c88d232401041a7cf2c8adafb877, type: 3}
      propertyPath: m_LocalRotation.z
      value: -0
      objectReference: {fileID: 0}
    - target: {fileID: 7514282602740898460, guid: 79d7c88d232401041a7cf2c8adafb877, type: 3}
      propertyPath: m_LocalEulerAnglesHint.x
      value: 0
      objectReference: {fileID: 0}
    - target: {fileID: 7514282602740898460, guid: 79d7c88d232401041a7cf2c8adafb877, type: 3}
      propertyPath: m_LocalEulerAnglesHint.y
      value: 0
      objectReference: {fileID: 0}
    - target: {fileID: 7514282602740898460, guid: 79d7c88d232401041a7cf2c8adafb877, type: 3}
      propertyPath: m_LocalEulerAnglesHint.z
      value: 0
      objectReference: {fileID: 0}
    m_RemovedComponents: []
  m_SourcePrefab: {fileID: 100100000, guid: 79d7c88d232401041a7cf2c8adafb877, type: 3}
--- !u!4 &848730834 stripped
Transform:
  m_CorrespondingSourceObject: {fileID: 7514282602740898460, guid: 79d7c88d232401041a7cf2c8adafb877, type: 3}
  m_PrefabInstance: {fileID: 848730833}
  m_PrefabAsset: {fileID: 0}
--- !u!1 &888549644
GameObject:
  m_ObjectHideFlags: 0
  m_CorrespondingSourceObject: {fileID: 0}
  m_PrefabInstance: {fileID: 0}
  m_PrefabAsset: {fileID: 0}
  serializedVersion: 6
  m_Component:
  - component: {fileID: 888549645}
  - component: {fileID: 888549646}
  m_Layer: 5
  m_Name: ContentGrid
  m_TagString: Untagged
  m_Icon: {fileID: 0}
  m_NavMeshLayer: 0
  m_StaticEditorFlags: 0
  m_IsActive: 1
--- !u!224 &888549645
RectTransform:
  m_ObjectHideFlags: 0
  m_CorrespondingSourceObject: {fileID: 0}
  m_PrefabInstance: {fileID: 0}
  m_PrefabAsset: {fileID: 0}
  m_GameObject: {fileID: 888549644}
  m_LocalRotation: {x: 0, y: 0, z: 0, w: 1}
  m_LocalPosition: {x: 0, y: 0, z: 0}
  m_LocalScale: {x: 1, y: 1, z: 1}
  m_ConstrainProportionsScale: 0
  m_Children: []
  m_Father: {fileID: 1936444378}
  m_RootOrder: 1
  m_LocalEulerAnglesHint: {x: 0, y: 0, z: 0}
  m_AnchorMin: {x: 0, y: 1}
  m_AnchorMax: {x: 1, y: 1}
  m_AnchoredPosition: {x: 0, y: -30}
  m_SizeDelta: {x: 0, y: 105}
  m_Pivot: {x: 0.5, y: 1}
--- !u!114 &888549646
MonoBehaviour:
  m_ObjectHideFlags: 0
  m_CorrespondingSourceObject: {fileID: 0}
  m_PrefabInstance: {fileID: 0}
  m_PrefabAsset: {fileID: 0}
  m_GameObject: {fileID: 888549644}
  m_Enabled: 1
  m_EditorHideFlags: 0
  m_Script: {fileID: 11500000, guid: 8a8695521f0d02e499659fee002a26c2, type: 3}
  m_Name: 
  m_EditorClassIdentifier: 
  m_Padding:
    m_Left: 5
    m_Right: 5
    m_Top: 5
    m_Bottom: 5
  m_ChildAlignment: 0
  m_StartCorner: 0
  m_StartAxis: 0
  m_CellSize: {x: 40, y: 40}
  m_Spacing: {x: 5, y: 5}
  m_Constraint: 0
  m_ConstraintCount: 2
--- !u!1 &928590840
GameObject:
  m_ObjectHideFlags: 0
  m_CorrespondingSourceObject: {fileID: 0}
  m_PrefabInstance: {fileID: 0}
  m_PrefabAsset: {fileID: 0}
  serializedVersion: 6
  m_Component:
  - component: {fileID: 928590844}
  - component: {fileID: 928590843}
  - component: {fileID: 928590842}
  - component: {fileID: 928590841}
  - component: {fileID: 928590845}
  m_Layer: 5
  m_Name: Canvas
  m_TagString: Untagged
  m_Icon: {fileID: 0}
  m_NavMeshLayer: 0
  m_StaticEditorFlags: 0
  m_IsActive: 1
--- !u!114 &928590841
MonoBehaviour:
  m_ObjectHideFlags: 0
  m_CorrespondingSourceObject: {fileID: 0}
  m_PrefabInstance: {fileID: 0}
  m_PrefabAsset: {fileID: 0}
  m_GameObject: {fileID: 928590840}
  m_Enabled: 1
  m_EditorHideFlags: 0
  m_Script: {fileID: 11500000, guid: dc42784cf147c0c48a680349fa168899, type: 3}
  m_Name: 
  m_EditorClassIdentifier: 
  m_IgnoreReversedGraphics: 1
  m_BlockingObjects: 0
  m_BlockingMask:
    serializedVersion: 2
    m_Bits: 4294967295
--- !u!114 &928590842
MonoBehaviour:
  m_ObjectHideFlags: 0
  m_CorrespondingSourceObject: {fileID: 0}
  m_PrefabInstance: {fileID: 0}
  m_PrefabAsset: {fileID: 0}
  m_GameObject: {fileID: 928590840}
  m_Enabled: 1
  m_EditorHideFlags: 0
  m_Script: {fileID: 11500000, guid: 0cd44c1031e13a943bb63640046fad76, type: 3}
  m_Name: 
  m_EditorClassIdentifier: 
  m_UiScaleMode: 0
  m_ReferencePixelsPerUnit: 100
  m_ScaleFactor: 1
  m_ReferenceResolution: {x: 800, y: 600}
  m_ScreenMatchMode: 0
  m_MatchWidthOrHeight: 0
  m_PhysicalUnit: 3
  m_FallbackScreenDPI: 96
  m_DefaultSpriteDPI: 96
  m_DynamicPixelsPerUnit: 1
  m_PresetInfoIsWorld: 0
--- !u!223 &928590843
Canvas:
  m_ObjectHideFlags: 0
  m_CorrespondingSourceObject: {fileID: 0}
  m_PrefabInstance: {fileID: 0}
  m_PrefabAsset: {fileID: 0}
  m_GameObject: {fileID: 928590840}
  m_Enabled: 1
  serializedVersion: 3
  m_RenderMode: 0
  m_Camera: {fileID: 0}
  m_PlaneDistance: 100
  m_PixelPerfect: 0
  m_ReceivesEvents: 1
  m_OverrideSorting: 0
  m_OverridePixelPerfect: 0
  m_SortingBucketNormalizedSize: 0
  m_AdditionalShaderChannelsFlag: 0
  m_SortingLayerID: 0
  m_SortingOrder: 0
  m_TargetDisplay: 0
--- !u!224 &928590844
RectTransform:
  m_ObjectHideFlags: 0
  m_CorrespondingSourceObject: {fileID: 0}
  m_PrefabInstance: {fileID: 0}
  m_PrefabAsset: {fileID: 0}
  m_GameObject: {fileID: 928590840}
  m_LocalRotation: {x: 0, y: 0, z: 0, w: 1}
  m_LocalPosition: {x: 0, y: 0, z: 0}
  m_LocalScale: {x: 0, y: 0, z: 0}
  m_ConstrainProportionsScale: 0
  m_Children:
  - {fileID: 1175332864}
  - {fileID: 2124815721}
  m_Father: {fileID: 0}
  m_RootOrder: 3
  m_LocalEulerAnglesHint: {x: 0, y: 0, z: 0}
  m_AnchorMin: {x: 0, y: 0}
  m_AnchorMax: {x: 0, y: 0}
  m_AnchoredPosition: {x: 0, y: 0}
  m_SizeDelta: {x: 0, y: 0}
  m_Pivot: {x: 0, y: 0}
--- !u!114 &928590845
MonoBehaviour:
  m_ObjectHideFlags: 0
  m_CorrespondingSourceObject: {fileID: 0}
  m_PrefabInstance: {fileID: 0}
  m_PrefabAsset: {fileID: 0}
  m_GameObject: {fileID: 928590840}
  m_Enabled: 1
  m_EditorHideFlags: 0
  m_Script: {fileID: 11500000, guid: 2e89bb6e6749e044e9a9b103f0ad5bc5, type: 3}
  m_Name: 
  m_EditorClassIdentifier: 
  InfoPopup: {fileID: 1175332867}
  ResourceDB: {fileID: 11400000, guid: eac40d5a11488c94dbf95ec31bbd2122, type: 2}
--- !u!1 &970575385
GameObject:
  m_ObjectHideFlags: 0
  m_CorrespondingSourceObject: {fileID: 0}
  m_PrefabInstance: {fileID: 0}
  m_PrefabAsset: {fileID: 0}
  serializedVersion: 6
  m_Component:
  - component: {fileID: 970575386}
  - component: {fileID: 970575388}
  - component: {fileID: 970575387}
  m_Layer: 5
  m_Name: Text
  m_TagString: Untagged
  m_Icon: {fileID: 0}
  m_NavMeshLayer: 0
  m_StaticEditorFlags: 0
  m_IsActive: 1
--- !u!224 &970575386
RectTransform:
  m_ObjectHideFlags: 0
  m_CorrespondingSourceObject: {fileID: 0}
  m_PrefabInstance: {fileID: 0}
  m_PrefabAsset: {fileID: 0}
  m_GameObject: {fileID: 970575385}
  m_LocalRotation: {x: -0, y: -0, z: -0, w: 1}
  m_LocalPosition: {x: 0, y: 0, z: 0}
  m_LocalScale: {x: 1, y: 1, z: 1}
  m_ConstrainProportionsScale: 0
  m_Children: []
  m_Father: {fileID: 2124815721}
  m_RootOrder: 0
  m_LocalEulerAnglesHint: {x: 0, y: 0, z: 0}
  m_AnchorMin: {x: 0, y: 0}
  m_AnchorMax: {x: 1, y: 1}
  m_AnchoredPosition: {x: 0, y: 0}
  m_SizeDelta: {x: 0, y: 0}
  m_Pivot: {x: 0.5, y: 0.5}
--- !u!114 &970575387
MonoBehaviour:
  m_ObjectHideFlags: 0
  m_CorrespondingSourceObject: {fileID: 0}
  m_PrefabInstance: {fileID: 0}
  m_PrefabAsset: {fileID: 0}
  m_GameObject: {fileID: 970575385}
  m_Enabled: 1
  m_EditorHideFlags: 0
  m_Script: {fileID: 11500000, guid: 5f7201a12d95ffc409449d95f23cf332, type: 3}
  m_Name: 
  m_EditorClassIdentifier: 
  m_Material: {fileID: 0}
  m_Color: {r: 0.19607843, g: 0.19607843, b: 0.19607843, a: 1}
  m_RaycastTarget: 1
  m_RaycastPadding: {x: 0, y: 0, z: 0, w: 0}
  m_Maskable: 1
  m_OnCullStateChanged:
    m_PersistentCalls:
      m_Calls: []
  m_FontData:
    m_Font: {fileID: 10102, guid: 0000000000000000e000000000000000, type: 0}
    m_FontSize: 14
    m_FontStyle: 0
    m_BestFit: 0
    m_MinSize: 10
    m_MaxSize: 40
    m_Alignment: 4
    m_AlignByGeometry: 0
    m_RichText: 1
    m_HorizontalOverflow: 0
    m_VerticalOverflow: 0
    m_LineSpacing: 1
  m_Text: Back to menu
--- !u!222 &970575388
CanvasRenderer:
  m_ObjectHideFlags: 0
  m_CorrespondingSourceObject: {fileID: 0}
  m_PrefabInstance: {fileID: 0}
  m_PrefabAsset: {fileID: 0}
  m_GameObject: {fileID: 970575385}
  m_CullTransparentMesh: 1
--- !u!1 &983736899
GameObject:
  m_ObjectHideFlags: 0
  m_CorrespondingSourceObject: {fileID: 0}
  m_PrefabInstance: {fileID: 0}
  m_PrefabAsset: {fileID: 0}
  serializedVersion: 6
  m_Component:
  - component: {fileID: 983736902}
  - component: {fileID: 983736901}
  - component: {fileID: 983736900}
  - component: {fileID: 983736903}
  m_Layer: 0
  m_Name: Main Camera
  m_TagString: MainCamera
  m_Icon: {fileID: 0}
  m_NavMeshLayer: 0
  m_StaticEditorFlags: 0
  m_IsActive: 1
--- !u!81 &983736900
AudioListener:
  m_ObjectHideFlags: 0
  m_CorrespondingSourceObject: {fileID: 0}
  m_PrefabInstance: {fileID: 0}
  m_PrefabAsset: {fileID: 0}
  m_GameObject: {fileID: 983736899}
  m_Enabled: 1
--- !u!20 &983736901
Camera:
  m_ObjectHideFlags: 0
  m_CorrespondingSourceObject: {fileID: 0}
  m_PrefabInstance: {fileID: 0}
  m_PrefabAsset: {fileID: 0}
  m_GameObject: {fileID: 983736899}
  m_Enabled: 1
  serializedVersion: 2
  m_ClearFlags: 2
  m_BackGroundColor: {r: 0.6045301, g: 0.8962264, b: 0.8009545, a: 0}
  m_projectionMatrixMode: 1
  m_GateFitMode: 2
  m_FOVAxisMode: 0
  m_SensorSize: {x: 36, y: 24}
  m_LensShift: {x: 0, y: 0}
  m_FocalLength: 50
  m_NormalizedViewPortRect:
    serializedVersion: 2
    x: 0
    y: 0
    width: 1
    height: 1
  near clip plane: 0.3
  far clip plane: 1200
  field of view: 48.8
  orthographic: 0
  orthographic size: 10.44
  m_Depth: -1
  m_CullingMask:
    serializedVersion: 2
    m_Bits: 4294967295
  m_RenderingPath: -1
  m_TargetTexture: {fileID: 0}
  m_TargetDisplay: 0
  m_TargetEye: 3
  m_HDR: 1
  m_AllowMSAA: 1
  m_AllowDynamicResolution: 0
  m_ForceIntoRT: 0
  m_OcclusionCulling: 1
  m_StereoConvergence: 10
  m_StereoSeparation: 0.022
--- !u!4 &983736902
Transform:
  m_ObjectHideFlags: 0
  m_CorrespondingSourceObject: {fileID: 0}
  m_PrefabInstance: {fileID: 0}
  m_PrefabAsset: {fileID: 0}
  m_GameObject: {fileID: 983736899}
  m_LocalRotation: {x: 0.21225113, y: 0.67083406, z: -0.20971937, w: 0.67893225}
  m_LocalPosition: {x: -25.418583, y: 15.535812, z: -3.7908163}
  m_LocalScale: {x: 1, y: 1, z: 1}
  m_ConstrainProportionsScale: 0
  m_Children: []
  m_Father: {fileID: 0}
  m_RootOrder: 0
  m_LocalEulerAnglesHint: {x: 0, y: 0, z: 0}
--- !u!114 &983736903
MonoBehaviour:
  m_ObjectHideFlags: 0
  m_CorrespondingSourceObject: {fileID: 0}
  m_PrefabInstance: {fileID: 0}
  m_PrefabAsset: {fileID: 0}
  m_GameObject: {fileID: 983736899}
  m_Enabled: 1
  m_EditorHideFlags: 0
  m_Script: {fileID: 11500000, guid: a79441f348de89743a2939f4d699eac1, type: 3}
  m_Name: 
  m_EditorClassIdentifier: 
  m_RenderShadows: 1
  m_RequiresDepthTextureOption: 2
  m_RequiresOpaqueTextureOption: 2
  m_CameraType: 0
  m_Cameras: []
  m_RendererIndex: -1
  m_VolumeLayerMask:
    serializedVersion: 2
    m_Bits: 1
  m_VolumeTrigger: {fileID: 0}
  m_VolumeFrameworkUpdateModeOption: 2
  m_RenderPostProcessing: 1
  m_Antialiasing: 0
  m_AntialiasingQuality: 2
  m_StopNaN: 0
  m_Dithering: 0
  m_ClearDepth: 1
  m_AllowXRRendering: 1
  m_RequiresDepthTexture: 0
  m_RequiresColorTexture: 0
  m_Version: 2
--- !u!1 &1001484396
GameObject:
  m_ObjectHideFlags: 0
  m_CorrespondingSourceObject: {fileID: 0}
  m_PrefabInstance: {fileID: 0}
  m_PrefabAsset: {fileID: 0}
  serializedVersion: 6
  m_Component:
  - component: {fileID: 1001484399}
  - component: {fileID: 1001484398}
  - component: {fileID: 1001484397}
  m_Layer: 0
  m_Name: EventSystem
  m_TagString: Untagged
  m_Icon: {fileID: 0}
  m_NavMeshLayer: 0
  m_StaticEditorFlags: 0
  m_IsActive: 1
--- !u!114 &1001484397
MonoBehaviour:
  m_ObjectHideFlags: 0
  m_CorrespondingSourceObject: {fileID: 0}
  m_PrefabInstance: {fileID: 0}
  m_PrefabAsset: {fileID: 0}
  m_GameObject: {fileID: 1001484396}
  m_Enabled: 1
  m_EditorHideFlags: 0
  m_Script: {fileID: 11500000, guid: 4f231c4fb786f3946a6b90b886c48677, type: 3}
  m_Name: 
  m_EditorClassIdentifier: 
  m_SendPointerHoverToParent: 1
  m_HorizontalAxis: Horizontal
  m_VerticalAxis: Vertical
  m_SubmitButton: Submit
  m_CancelButton: Cancel
  m_InputActionsPerSecond: 10
  m_RepeatDelay: 0.5
  m_ForceModuleActive: 0
--- !u!114 &1001484398
MonoBehaviour:
  m_ObjectHideFlags: 0
  m_CorrespondingSourceObject: {fileID: 0}
  m_PrefabInstance: {fileID: 0}
  m_PrefabAsset: {fileID: 0}
  m_GameObject: {fileID: 1001484396}
  m_Enabled: 1
  m_EditorHideFlags: 0
  m_Script: {fileID: 11500000, guid: 76c392e42b5098c458856cdf6ecaaaa1, type: 3}
  m_Name: 
  m_EditorClassIdentifier: 
  m_FirstSelected: {fileID: 0}
  m_sendNavigationEvents: 1
  m_DragThreshold: 10
--- !u!4 &1001484399
Transform:
  m_ObjectHideFlags: 0
  m_CorrespondingSourceObject: {fileID: 0}
  m_PrefabInstance: {fileID: 0}
  m_PrefabAsset: {fileID: 0}
  m_GameObject: {fileID: 1001484396}
  m_LocalRotation: {x: 0, y: 0, z: 0, w: 1}
  m_LocalPosition: {x: 0, y: 0, z: 0}
  m_LocalScale: {x: 1, y: 1, z: 1}
  m_ConstrainProportionsScale: 0
  m_Children: []
  m_Father: {fileID: 0}
  m_RootOrder: 4
  m_LocalEulerAnglesHint: {x: 0, y: 0, z: 0}
--- !u!1 &1007523127
GameObject:
  m_ObjectHideFlags: 0
  m_CorrespondingSourceObject: {fileID: 0}
  m_PrefabInstance: {fileID: 0}
  m_PrefabAsset: {fileID: 0}
  serializedVersion: 6
  m_Component:
  - component: {fileID: 1007523128}
  m_Layer: 0
  m_Name: Rack (2)
  m_TagString: Untagged
  m_Icon: {fileID: 0}
  m_NavMeshLayer: 0
  m_StaticEditorFlags: 4294967295
  m_IsActive: 1
--- !u!4 &1007523128
Transform:
  m_ObjectHideFlags: 0
  m_CorrespondingSourceObject: {fileID: 0}
  m_PrefabInstance: {fileID: 0}
  m_PrefabAsset: {fileID: 0}
  m_GameObject: {fileID: 1007523127}
  m_LocalRotation: {x: -0, y: -0.6983245, z: -0, w: 0.7157814}
  m_LocalPosition: {x: 1.7346799, y: 0, z: -2.494722}
  m_LocalScale: {x: 1, y: 1, z: 1}
  m_ConstrainProportionsScale: 0
  m_Children:
  - {fileID: 1690898585}
  - {fileID: 1494287446}
  - {fileID: 1522453668}
  m_Father: {fileID: 200090843}
  m_RootOrder: 4
  m_LocalEulerAnglesHint: {x: 0, y: -88.585, z: 0}
--- !u!1 &1022571337
GameObject:
  m_ObjectHideFlags: 0
  m_CorrespondingSourceObject: {fileID: 0}
  m_PrefabInstance: {fileID: 0}
  m_PrefabAsset: {fileID: 0}
  serializedVersion: 6
  m_Component:
  - component: {fileID: 1022571338}
  m_Layer: 0
  m_Name: Rack (1)
  m_TagString: Untagged
  m_Icon: {fileID: 0}
  m_NavMeshLayer: 0
  m_StaticEditorFlags: 4294967295
  m_IsActive: 1
--- !u!4 &1022571338
Transform:
  m_ObjectHideFlags: 0
  m_CorrespondingSourceObject: {fileID: 0}
  m_PrefabInstance: {fileID: 0}
  m_PrefabAsset: {fileID: 0}
  m_GameObject: {fileID: 1022571337}
  m_LocalRotation: {x: -0, y: 0.012343906, z: -0, w: 0.9999239}
  m_LocalPosition: {x: 8.57, y: 0, z: -5.7}
  m_LocalScale: {x: 1, y: 1, z: 1}
  m_ConstrainProportionsScale: 0
  m_Children:
  - {fileID: 1669169763}
  - {fileID: 650563490}
  - {fileID: 848730834}
  m_Father: {fileID: 200090843}
  m_RootOrder: 3
  m_LocalEulerAnglesHint: {x: 0, y: 1.415, z: 0}
--- !u!1 &1037664011 stripped
GameObject:
  m_CorrespondingSourceObject: {fileID: 8736306309072059436, guid: d9ab901c7fa373a4db0a71e500773730, type: 3}
  m_PrefabInstance: {fileID: 8736306309267653415}
  m_PrefabAsset: {fileID: 0}
--- !u!1 &1101146665
GameObject:
  m_ObjectHideFlags: 0
  m_CorrespondingSourceObject: {fileID: 0}
  m_PrefabInstance: {fileID: 0}
  m_PrefabAsset: {fileID: 0}
  serializedVersion: 6
  m_Component:
  - component: {fileID: 1101146666}
  m_Layer: 0
  m_Name: Lighting
  m_TagString: Untagged
  m_Icon: {fileID: 0}
  m_NavMeshLayer: 0
  m_StaticEditorFlags: 0
  m_IsActive: 1
--- !u!4 &1101146666
Transform:
  m_ObjectHideFlags: 0
  m_CorrespondingSourceObject: {fileID: 0}
  m_PrefabInstance: {fileID: 0}
  m_PrefabAsset: {fileID: 0}
  m_GameObject: {fileID: 1101146665}
  m_LocalRotation: {x: 0, y: 0, z: 0, w: 1}
  m_LocalPosition: {x: 14.462803, y: -8.525315, z: 7.0539393}
  m_LocalScale: {x: 1, y: 1, z: 1}
  m_ConstrainProportionsScale: 0
  m_Children:
  - {fileID: 1137620219}
  - {fileID: 130936402}
  m_Father: {fileID: 0}
  m_RootOrder: 1
  m_LocalEulerAnglesHint: {x: 0, y: 0, z: 0}
--- !u!1 &1137620217
GameObject:
  m_ObjectHideFlags: 0
  m_CorrespondingSourceObject: {fileID: 0}
  m_PrefabInstance: {fileID: 0}
  m_PrefabAsset: {fileID: 0}
  serializedVersion: 6
  m_Component:
  - component: {fileID: 1137620219}
  - component: {fileID: 1137620218}
  - component: {fileID: 1137620220}
  m_Layer: 0
  m_Name: Directional Light
  m_TagString: Untagged
  m_Icon: {fileID: 0}
  m_NavMeshLayer: 0
  m_StaticEditorFlags: 0
  m_IsActive: 1
--- !u!108 &1137620218
Light:
  m_ObjectHideFlags: 0
  m_CorrespondingSourceObject: {fileID: 0}
  m_PrefabInstance: {fileID: 0}
  m_PrefabAsset: {fileID: 0}
  m_GameObject: {fileID: 1137620217}
  m_Enabled: 1
  serializedVersion: 10
  m_Type: 1
  m_Shape: 0
  m_Color: {r: 0.8962264, g: 0.8642854, b: 0.8004034, a: 1}
  m_Intensity: 1
  m_Range: 10
  m_SpotAngle: 30
  m_InnerSpotAngle: 21.80208
  m_CookieSize: 10
  m_Shadows:
    m_Type: 2
    m_Resolution: -1
    m_CustomResolution: -1
    m_Strength: 1
    m_Bias: 0.05
    m_NormalBias: 0.4
    m_NearPlane: 0.2
    m_CullingMatrixOverride:
      e00: 1
      e01: 0
      e02: 0
      e03: 0
      e10: 0
      e11: 1
      e12: 0
      e13: 0
      e20: 0
      e21: 0
      e22: 1
      e23: 0
      e30: 0
      e31: 0
      e32: 0
      e33: 1
    m_UseCullingMatrixOverride: 0
  m_Cookie: {fileID: 0}
  m_DrawHalo: 0
  m_Flare: {fileID: 0}
  m_RenderMode: 0
  m_CullingMask:
    serializedVersion: 2
    m_Bits: 4294967295
  m_RenderingLayerMask: 1
  m_Lightmapping: 4
  m_LightShadowCasterMode: 0
  m_AreaSize: {x: 1, y: 1}
  m_BounceIntensity: 1
  m_ColorTemperature: 6570
  m_UseColorTemperature: 0
  m_BoundingSphereOverride: {x: 0, y: 0, z: 0, w: 0}
  m_UseBoundingSphereOverride: 0
  m_UseViewFrustumForShadowCasterCull: 1
  m_ShadowRadius: 0
  m_ShadowAngle: 0
--- !u!4 &1137620219
Transform:
  m_ObjectHideFlags: 0
  m_CorrespondingSourceObject: {fileID: 0}
  m_PrefabInstance: {fileID: 0}
  m_PrefabAsset: {fileID: 0}
  m_GameObject: {fileID: 1137620217}
  m_LocalRotation: {x: 0.48374978, y: -0.45444793, z: 0.35167304, w: 0.66014344}
  m_LocalPosition: {x: -14.462803, y: 26.515316, z: -7.0539393}
  m_LocalScale: {x: 1, y: 1, z: 1}
  m_ConstrainProportionsScale: 0
  m_Children: []
  m_Father: {fileID: 1101146666}
  m_RootOrder: 0
  m_LocalEulerAnglesHint: {x: 73.4, y: -65.4, z: 4.946}
--- !u!114 &1137620220
MonoBehaviour:
  m_ObjectHideFlags: 0
  m_CorrespondingSourceObject: {fileID: 0}
  m_PrefabInstance: {fileID: 0}
  m_PrefabAsset: {fileID: 0}
  m_GameObject: {fileID: 1137620217}
  m_Enabled: 1
  m_EditorHideFlags: 0
  m_Script: {fileID: 11500000, guid: 474bcb49853aa07438625e644c072ee6, type: 3}
  m_Name: 
  m_EditorClassIdentifier: 
  m_Version: 1
  m_UsePipelineSettings: 1
  m_AdditionalLightsShadowResolutionTier: 2
  m_LightLayerMask: 1
  m_CustomShadowLayers: 0
  m_ShadowLayerMask: 1
  m_LightCookieSize: {x: 1, y: 1}
  m_LightCookieOffset: {x: 0, y: 0}
--- !u!1001 &1138522499
PrefabInstance:
  m_ObjectHideFlags: 0
  serializedVersion: 2
  m_Modification:
    m_TransformParent: {fileID: 418989262}
    m_Modifications:
    - target: {fileID: 7134766800129261606, guid: 79d7c88d232401041a7cf2c8adafb877, type: 3}
      propertyPath: m_Name
      value: Rack Variant (1)
      objectReference: {fileID: 0}
    - target: {fileID: 7514282602740898460, guid: 79d7c88d232401041a7cf2c8adafb877, type: 3}
      propertyPath: m_RootOrder
      value: 2
      objectReference: {fileID: 0}
    - target: {fileID: 7514282602740898460, guid: 79d7c88d232401041a7cf2c8adafb877, type: 3}
      propertyPath: m_LocalPosition.x
      value: -0.24999928
      objectReference: {fileID: 0}
    - target: {fileID: 7514282602740898460, guid: 79d7c88d232401041a7cf2c8adafb877, type: 3}
      propertyPath: m_LocalPosition.y
      value: -0.03097248
      objectReference: {fileID: 0}
    - target: {fileID: 7514282602740898460, guid: 79d7c88d232401041a7cf2c8adafb877, type: 3}
      propertyPath: m_LocalPosition.z
      value: -1.9099998
      objectReference: {fileID: 0}
    - target: {fileID: 7514282602740898460, guid: 79d7c88d232401041a7cf2c8adafb877, type: 3}
      propertyPath: m_LocalRotation.w
      value: 1
      objectReference: {fileID: 0}
    - target: {fileID: 7514282602740898460, guid: 79d7c88d232401041a7cf2c8adafb877, type: 3}
      propertyPath: m_LocalRotation.x
      value: -0
      objectReference: {fileID: 0}
    - target: {fileID: 7514282602740898460, guid: 79d7c88d232401041a7cf2c8adafb877, type: 3}
      propertyPath: m_LocalRotation.y
      value: -0.000000014901161
      objectReference: {fileID: 0}
    - target: {fileID: 7514282602740898460, guid: 79d7c88d232401041a7cf2c8adafb877, type: 3}
      propertyPath: m_LocalRotation.z
      value: -0
      objectReference: {fileID: 0}
    - target: {fileID: 7514282602740898460, guid: 79d7c88d232401041a7cf2c8adafb877, type: 3}
      propertyPath: m_LocalEulerAnglesHint.x
      value: 0
      objectReference: {fileID: 0}
    - target: {fileID: 7514282602740898460, guid: 79d7c88d232401041a7cf2c8adafb877, type: 3}
      propertyPath: m_LocalEulerAnglesHint.y
      value: 0
      objectReference: {fileID: 0}
    - target: {fileID: 7514282602740898460, guid: 79d7c88d232401041a7cf2c8adafb877, type: 3}
      propertyPath: m_LocalEulerAnglesHint.z
      value: 0
      objectReference: {fileID: 0}
    m_RemovedComponents: []
  m_SourcePrefab: {fileID: 100100000, guid: 79d7c88d232401041a7cf2c8adafb877, type: 3}
--- !u!4 &1138522500 stripped
Transform:
  m_CorrespondingSourceObject: {fileID: 7514282602740898460, guid: 79d7c88d232401041a7cf2c8adafb877, type: 3}
  m_PrefabInstance: {fileID: 1138522499}
  m_PrefabAsset: {fileID: 0}
--- !u!1 &1175332863
GameObject:
  m_ObjectHideFlags: 0
  m_CorrespondingSourceObject: {fileID: 0}
  m_PrefabInstance: {fileID: 0}
  m_PrefabAsset: {fileID: 0}
  serializedVersion: 6
  m_Component:
  - component: {fileID: 1175332864}
  - component: {fileID: 1175332866}
  - component: {fileID: 1175332865}
  - component: {fileID: 1175332867}
  m_Layer: 5
  m_Name: InfoPopup
  m_TagString: Untagged
  m_Icon: {fileID: 0}
  m_NavMeshLayer: 0
  m_StaticEditorFlags: 0
  m_IsActive: 1
--- !u!224 &1175332864
RectTransform:
  m_ObjectHideFlags: 0
  m_CorrespondingSourceObject: {fileID: 0}
  m_PrefabInstance: {fileID: 0}
  m_PrefabAsset: {fileID: 0}
  m_GameObject: {fileID: 1175332863}
  m_LocalRotation: {x: 0, y: 0, z: 0, w: 1}
  m_LocalPosition: {x: 0, y: 0, z: 0}
  m_LocalScale: {x: 1, y: 1, z: 1}
  m_ConstrainProportionsScale: 0
  m_Children:
  - {fileID: 1923466643}
  - {fileID: 1673336311}
  - {fileID: 1936444378}
  m_Father: {fileID: 928590844}
  m_RootOrder: 0
  m_LocalEulerAnglesHint: {x: 0, y: 0, z: 0}
  m_AnchorMin: {x: 0, y: 1}
  m_AnchorMax: {x: 0, y: 1}
  m_AnchoredPosition: {x: 0, y: 0}
  m_SizeDelta: {x: 300, y: 300}
  m_Pivot: {x: 0, y: 1}
--- !u!114 &1175332865
MonoBehaviour:
  m_ObjectHideFlags: 0
  m_CorrespondingSourceObject: {fileID: 0}
  m_PrefabInstance: {fileID: 0}
  m_PrefabAsset: {fileID: 0}
  m_GameObject: {fileID: 1175332863}
  m_Enabled: 1
  m_EditorHideFlags: 0
  m_Script: {fileID: 11500000, guid: fe87c0e1cc204ed48ad3b37840f39efc, type: 3}
  m_Name: 
  m_EditorClassIdentifier: 
  m_Material: {fileID: 0}
  m_Color: {r: 1, g: 1, b: 1, a: 0.392}
  m_RaycastTarget: 1
  m_RaycastPadding: {x: 0, y: 0, z: 0, w: 0}
  m_Maskable: 1
  m_OnCullStateChanged:
    m_PersistentCalls:
      m_Calls: []
  m_Sprite: {fileID: 10907, guid: 0000000000000000f000000000000000, type: 0}
  m_Type: 1
  m_PreserveAspect: 0
  m_FillCenter: 1
  m_FillMethod: 4
  m_FillAmount: 1
  m_FillClockwise: 1
  m_FillOrigin: 0
  m_UseSpriteMesh: 0
  m_PixelsPerUnitMultiplier: 1
--- !u!222 &1175332866
CanvasRenderer:
  m_ObjectHideFlags: 0
  m_CorrespondingSourceObject: {fileID: 0}
  m_PrefabInstance: {fileID: 0}
  m_PrefabAsset: {fileID: 0}
  m_GameObject: {fileID: 1175332863}
  m_CullTransparentMesh: 1
--- !u!114 &1175332867
MonoBehaviour:
  m_ObjectHideFlags: 0
  m_CorrespondingSourceObject: {fileID: 0}
  m_PrefabInstance: {fileID: 0}
  m_PrefabAsset: {fileID: 0}
  m_GameObject: {fileID: 1175332863}
  m_Enabled: 1
  m_EditorHideFlags: 0
  m_Script: {fileID: 11500000, guid: 77da56713b97bb240acea93336b7011b, type: 3}
  m_Name: 
  m_EditorClassIdentifier: 
  Name: {fileID: 1923466644}
  Data: {fileID: 1673336312}
  ContentTransform: {fileID: 888549645}
  EntryPrefab: {fileID: 6488315185815806630, guid: 6e98b5224d000d744997c6c881d15ee9, type: 3}
--- !u!4 &1195807374 stripped
Transform:
  m_CorrespondingSourceObject: {fileID: -8679921383154817045, guid: 96f8402ad64f6864baee4099c68c7f24, type: 3}
  m_PrefabInstance: {fileID: 604271679}
  m_PrefabAsset: {fileID: 0}
--- !u!1001 &1494287445
PrefabInstance:
  m_ObjectHideFlags: 0
  serializedVersion: 2
  m_Modification:
    m_TransformParent: {fileID: 1007523128}
    m_Modifications:
    - target: {fileID: 7134766800129261606, guid: 79d7c88d232401041a7cf2c8adafb877, type: 3}
      propertyPath: m_Name
      value: Rack Variant
      objectReference: {fileID: 0}
    - target: {fileID: 7514282602740898460, guid: 79d7c88d232401041a7cf2c8adafb877, type: 3}
      propertyPath: m_RootOrder
      value: 1
      objectReference: {fileID: 0}
    - target: {fileID: 7514282602740898460, guid: 79d7c88d232401041a7cf2c8adafb877, type: 3}
      propertyPath: m_LocalPosition.x
      value: -0.24999964
      objectReference: {fileID: 0}
    - target: {fileID: 7514282602740898460, guid: 79d7c88d232401041a7cf2c8adafb877, type: 3}
      propertyPath: m_LocalPosition.y
      value: -0.03097248
      objectReference: {fileID: 0}
    - target: {fileID: 7514282602740898460, guid: 79d7c88d232401041a7cf2c8adafb877, type: 3}
      propertyPath: m_LocalPosition.z
      value: 1.0899999
      objectReference: {fileID: 0}
    - target: {fileID: 7514282602740898460, guid: 79d7c88d232401041a7cf2c8adafb877, type: 3}
      propertyPath: m_LocalRotation.w
      value: 1
      objectReference: {fileID: 0}
    - target: {fileID: 7514282602740898460, guid: 79d7c88d232401041a7cf2c8adafb877, type: 3}
      propertyPath: m_LocalRotation.x
      value: -0
      objectReference: {fileID: 0}
    - target: {fileID: 7514282602740898460, guid: 79d7c88d232401041a7cf2c8adafb877, type: 3}
      propertyPath: m_LocalRotation.y
      value: -0.000000014901161
      objectReference: {fileID: 0}
    - target: {fileID: 7514282602740898460, guid: 79d7c88d232401041a7cf2c8adafb877, type: 3}
      propertyPath: m_LocalRotation.z
      value: -0
      objectReference: {fileID: 0}
    - target: {fileID: 7514282602740898460, guid: 79d7c88d232401041a7cf2c8adafb877, type: 3}
      propertyPath: m_LocalEulerAnglesHint.x
      value: 0
      objectReference: {fileID: 0}
    - target: {fileID: 7514282602740898460, guid: 79d7c88d232401041a7cf2c8adafb877, type: 3}
      propertyPath: m_LocalEulerAnglesHint.y
      value: 0
      objectReference: {fileID: 0}
    - target: {fileID: 7514282602740898460, guid: 79d7c88d232401041a7cf2c8adafb877, type: 3}
      propertyPath: m_LocalEulerAnglesHint.z
      value: 0
      objectReference: {fileID: 0}
    m_RemovedComponents: []
  m_SourcePrefab: {fileID: 100100000, guid: 79d7c88d232401041a7cf2c8adafb877, type: 3}
--- !u!4 &1494287446 stripped
Transform:
  m_CorrespondingSourceObject: {fileID: 7514282602740898460, guid: 79d7c88d232401041a7cf2c8adafb877, type: 3}
  m_PrefabInstance: {fileID: 1494287445}
  m_PrefabAsset: {fileID: 0}
--- !u!1001 &1501294179
PrefabInstance:
  m_ObjectHideFlags: 0
  serializedVersion: 2
  m_Modification:
    m_TransformParent: {fileID: 200090843}
    m_Modifications:
    - target: {fileID: -8679921383154817045, guid: d70a04ee80add1e4581e8e26f7b69bc0, type: 3}
      propertyPath: m_RootOrder
      value: 1
      objectReference: {fileID: 0}
    - target: {fileID: -8679921383154817045, guid: d70a04ee80add1e4581e8e26f7b69bc0, type: 3}
      propertyPath: m_LocalPosition.x
      value: -8.25
      objectReference: {fileID: 0}
    - target: {fileID: -8679921383154817045, guid: d70a04ee80add1e4581e8e26f7b69bc0, type: 3}
      propertyPath: m_LocalPosition.y
      value: 1.6
      objectReference: {fileID: 0}
    - target: {fileID: -8679921383154817045, guid: d70a04ee80add1e4581e8e26f7b69bc0, type: 3}
      propertyPath: m_LocalPosition.z
      value: 10.73
      objectReference: {fileID: 0}
    - target: {fileID: -8679921383154817045, guid: d70a04ee80add1e4581e8e26f7b69bc0, type: 3}
      propertyPath: m_LocalRotation.w
      value: 1
      objectReference: {fileID: 0}
    - target: {fileID: -8679921383154817045, guid: d70a04ee80add1e4581e8e26f7b69bc0, type: 3}
      propertyPath: m_LocalRotation.x
      value: -0
      objectReference: {fileID: 0}
    - target: {fileID: -8679921383154817045, guid: d70a04ee80add1e4581e8e26f7b69bc0, type: 3}
      propertyPath: m_LocalRotation.y
      value: -0
      objectReference: {fileID: 0}
    - target: {fileID: -8679921383154817045, guid: d70a04ee80add1e4581e8e26f7b69bc0, type: 3}
      propertyPath: m_LocalRotation.z
      value: -0
      objectReference: {fileID: 0}
    - target: {fileID: -8679921383154817045, guid: d70a04ee80add1e4581e8e26f7b69bc0, type: 3}
      propertyPath: m_LocalEulerAnglesHint.x
      value: 0
      objectReference: {fileID: 0}
    - target: {fileID: -8679921383154817045, guid: d70a04ee80add1e4581e8e26f7b69bc0, type: 3}
      propertyPath: m_LocalEulerAnglesHint.y
      value: 0
      objectReference: {fileID: 0}
    - target: {fileID: -8679921383154817045, guid: d70a04ee80add1e4581e8e26f7b69bc0, type: 3}
      propertyPath: m_LocalEulerAnglesHint.z
      value: 0
      objectReference: {fileID: 0}
    - target: {fileID: 919132149155446097, guid: d70a04ee80add1e4581e8e26f7b69bc0, type: 3}
      propertyPath: m_Name
      value: Truck
      objectReference: {fileID: 0}
    - target: {fileID: 919132149155446097, guid: d70a04ee80add1e4581e8e26f7b69bc0, type: 3}
      propertyPath: m_NavMeshLayer
      value: 1
      objectReference: {fileID: 0}
    - target: {fileID: 919132149155446097, guid: d70a04ee80add1e4581e8e26f7b69bc0, type: 3}
      propertyPath: m_StaticEditorFlags
      value: 4294967295
      objectReference: {fileID: 0}
    m_RemovedComponents: []
  m_SourcePrefab: {fileID: 100100000, guid: d70a04ee80add1e4581e8e26f7b69bc0, type: 3}
--- !u!4 &1501294180 stripped
Transform:
  m_CorrespondingSourceObject: {fileID: -8679921383154817045, guid: d70a04ee80add1e4581e8e26f7b69bc0, type: 3}
  m_PrefabInstance: {fileID: 1501294179}
  m_PrefabAsset: {fileID: 0}
--- !u!1001 &1522453667
PrefabInstance:
  m_ObjectHideFlags: 0
  serializedVersion: 2
  m_Modification:
    m_TransformParent: {fileID: 1007523128}
    m_Modifications:
    - target: {fileID: 7134766800129261606, guid: 79d7c88d232401041a7cf2c8adafb877, type: 3}
      propertyPath: m_Name
      value: Rack Variant (1)
      objectReference: {fileID: 0}
    - target: {fileID: 7514282602740898460, guid: 79d7c88d232401041a7cf2c8adafb877, type: 3}
      propertyPath: m_RootOrder
      value: 2
      objectReference: {fileID: 0}
    - target: {fileID: 7514282602740898460, guid: 79d7c88d232401041a7cf2c8adafb877, type: 3}
      propertyPath: m_LocalPosition.x
      value: -0.24999928
      objectReference: {fileID: 0}
    - target: {fileID: 7514282602740898460, guid: 79d7c88d232401041a7cf2c8adafb877, type: 3}
      propertyPath: m_LocalPosition.y
      value: -0.03097248
      objectReference: {fileID: 0}
    - target: {fileID: 7514282602740898460, guid: 79d7c88d232401041a7cf2c8adafb877, type: 3}
      propertyPath: m_LocalPosition.z
      value: -1.9099998
      objectReference: {fileID: 0}
    - target: {fileID: 7514282602740898460, guid: 79d7c88d232401041a7cf2c8adafb877, type: 3}
      propertyPath: m_LocalRotation.w
      value: 1
      objectReference: {fileID: 0}
    - target: {fileID: 7514282602740898460, guid: 79d7c88d232401041a7cf2c8adafb877, type: 3}
      propertyPath: m_LocalRotation.x
      value: -0
      objectReference: {fileID: 0}
    - target: {fileID: 7514282602740898460, guid: 79d7c88d232401041a7cf2c8adafb877, type: 3}
      propertyPath: m_LocalRotation.y
      value: -0.000000014901161
      objectReference: {fileID: 0}
    - target: {fileID: 7514282602740898460, guid: 79d7c88d232401041a7cf2c8adafb877, type: 3}
      propertyPath: m_LocalRotation.z
      value: -0
      objectReference: {fileID: 0}
    - target: {fileID: 7514282602740898460, guid: 79d7c88d232401041a7cf2c8adafb877, type: 3}
      propertyPath: m_LocalEulerAnglesHint.x
      value: 0
      objectReference: {fileID: 0}
    - target: {fileID: 7514282602740898460, guid: 79d7c88d232401041a7cf2c8adafb877, type: 3}
      propertyPath: m_LocalEulerAnglesHint.y
      value: 0
      objectReference: {fileID: 0}
    - target: {fileID: 7514282602740898460, guid: 79d7c88d232401041a7cf2c8adafb877, type: 3}
      propertyPath: m_LocalEulerAnglesHint.z
      value: 0
      objectReference: {fileID: 0}
    m_RemovedComponents: []
  m_SourcePrefab: {fileID: 100100000, guid: 79d7c88d232401041a7cf2c8adafb877, type: 3}
--- !u!4 &1522453668 stripped
Transform:
  m_CorrespondingSourceObject: {fileID: 7514282602740898460, guid: 79d7c88d232401041a7cf2c8adafb877, type: 3}
  m_PrefabInstance: {fileID: 1522453667}
  m_PrefabAsset: {fileID: 0}
--- !u!1001 &1669169762
PrefabInstance:
  m_ObjectHideFlags: 0
  serializedVersion: 2
  m_Modification:
    m_TransformParent: {fileID: 1022571338}
    m_Modifications:
    - target: {fileID: 7134766800129261606, guid: 79d7c88d232401041a7cf2c8adafb877, type: 3}
      propertyPath: m_Name
      value: Rack
      objectReference: {fileID: 0}
    - target: {fileID: 7514282602740898460, guid: 79d7c88d232401041a7cf2c8adafb877, type: 3}
      propertyPath: m_RootOrder
      value: 0
      objectReference: {fileID: 0}
    - target: {fileID: 7514282602740898460, guid: 79d7c88d232401041a7cf2c8adafb877, type: 3}
      propertyPath: m_LocalPosition.x
      value: -0.25
      objectReference: {fileID: 0}
    - target: {fileID: 7514282602740898460, guid: 79d7c88d232401041a7cf2c8adafb877, type: 3}
      propertyPath: m_LocalPosition.y
      value: -0.03097248
      objectReference: {fileID: 0}
    - target: {fileID: 7514282602740898460, guid: 79d7c88d232401041a7cf2c8adafb877, type: 3}
      propertyPath: m_LocalPosition.z
      value: 4.0899997
      objectReference: {fileID: 0}
    - target: {fileID: 7514282602740898460, guid: 79d7c88d232401041a7cf2c8adafb877, type: 3}
      propertyPath: m_LocalRotation.w
      value: 1
      objectReference: {fileID: 0}
    - target: {fileID: 7514282602740898460, guid: 79d7c88d232401041a7cf2c8adafb877, type: 3}
      propertyPath: m_LocalRotation.x
      value: -0
      objectReference: {fileID: 0}
    - target: {fileID: 7514282602740898460, guid: 79d7c88d232401041a7cf2c8adafb877, type: 3}
      propertyPath: m_LocalRotation.y
      value: -0.000000014901161
      objectReference: {fileID: 0}
    - target: {fileID: 7514282602740898460, guid: 79d7c88d232401041a7cf2c8adafb877, type: 3}
      propertyPath: m_LocalRotation.z
      value: -0
      objectReference: {fileID: 0}
    - target: {fileID: 7514282602740898460, guid: 79d7c88d232401041a7cf2c8adafb877, type: 3}
      propertyPath: m_LocalEulerAnglesHint.x
      value: 0
      objectReference: {fileID: 0}
    - target: {fileID: 7514282602740898460, guid: 79d7c88d232401041a7cf2c8adafb877, type: 3}
      propertyPath: m_LocalEulerAnglesHint.y
      value: 0
      objectReference: {fileID: 0}
    - target: {fileID: 7514282602740898460, guid: 79d7c88d232401041a7cf2c8adafb877, type: 3}
      propertyPath: m_LocalEulerAnglesHint.z
      value: 0
      objectReference: {fileID: 0}
    m_RemovedComponents: []
  m_SourcePrefab: {fileID: 100100000, guid: 79d7c88d232401041a7cf2c8adafb877, type: 3}
--- !u!4 &1669169763 stripped
Transform:
  m_CorrespondingSourceObject: {fileID: 7514282602740898460, guid: 79d7c88d232401041a7cf2c8adafb877, type: 3}
  m_PrefabInstance: {fileID: 1669169762}
  m_PrefabAsset: {fileID: 0}
--- !u!1 &1673336310
GameObject:
  m_ObjectHideFlags: 0
  m_CorrespondingSourceObject: {fileID: 0}
  m_PrefabInstance: {fileID: 0}
  m_PrefabAsset: {fileID: 0}
  serializedVersion: 6
  m_Component:
  - component: {fileID: 1673336311}
  - component: {fileID: 1673336313}
  - component: {fileID: 1673336312}
  m_Layer: 5
  m_Name: Data
  m_TagString: Untagged
  m_Icon: {fileID: 0}
  m_NavMeshLayer: 0
  m_StaticEditorFlags: 0
  m_IsActive: 1
--- !u!224 &1673336311
RectTransform:
  m_ObjectHideFlags: 0
  m_CorrespondingSourceObject: {fileID: 0}
  m_PrefabInstance: {fileID: 0}
  m_PrefabAsset: {fileID: 0}
  m_GameObject: {fileID: 1673336310}
  m_LocalRotation: {x: 0, y: 0, z: 0, w: 1}
  m_LocalPosition: {x: 0, y: 0, z: 0}
  m_LocalScale: {x: 1, y: 1, z: 1}
  m_ConstrainProportionsScale: 0
  m_Children: []
  m_Father: {fileID: 1175332864}
  m_RootOrder: 1
  m_LocalEulerAnglesHint: {x: 0, y: 0, z: 0}
  m_AnchorMin: {x: 0, y: 1}
  m_AnchorMax: {x: 1, y: 1}
  m_AnchoredPosition: {x: 0, y: -55}
  m_SizeDelta: {x: -10, y: 100}
  m_Pivot: {x: 0.5, y: 1}
--- !u!114 &1673336312
MonoBehaviour:
  m_ObjectHideFlags: 0
  m_CorrespondingSourceObject: {fileID: 0}
  m_PrefabInstance: {fileID: 0}
  m_PrefabAsset: {fileID: 0}
  m_GameObject: {fileID: 1673336310}
  m_Enabled: 1
  m_EditorHideFlags: 0
  m_Script: {fileID: 11500000, guid: 5f7201a12d95ffc409449d95f23cf332, type: 3}
  m_Name: 
  m_EditorClassIdentifier: 
  m_Material: {fileID: 0}
  m_Color: {r: 0.19607843, g: 0.19607843, b: 0.19607843, a: 1}
  m_RaycastTarget: 1
  m_RaycastPadding: {x: 0, y: 0, z: 0, w: 0}
  m_Maskable: 1
  m_OnCullStateChanged:
    m_PersistentCalls:
      m_Calls: []
  m_FontData:
    m_Font: {fileID: 10102, guid: 0000000000000000e000000000000000, type: 0}
    m_FontSize: 14
    m_FontStyle: 0
    m_BestFit: 0
    m_MinSize: 10
    m_MaxSize: 40
    m_Alignment: 0
    m_AlignByGeometry: 0
    m_RichText: 1
    m_HorizontalOverflow: 0
    m_VerticalOverflow: 0
    m_LineSpacing: 1
  m_Text: Data each object can fill as it want
--- !u!222 &1673336313
CanvasRenderer:
  m_ObjectHideFlags: 0
  m_CorrespondingSourceObject: {fileID: 0}
  m_PrefabInstance: {fileID: 0}
  m_PrefabAsset: {fileID: 0}
  m_GameObject: {fileID: 1673336310}
  m_CullTransparentMesh: 1
--- !u!1001 &1690898584
PrefabInstance:
  m_ObjectHideFlags: 0
  serializedVersion: 2
  m_Modification:
    m_TransformParent: {fileID: 1007523128}
    m_Modifications:
    - target: {fileID: 7134766800129261606, guid: 79d7c88d232401041a7cf2c8adafb877, type: 3}
      propertyPath: m_Name
      value: Rack
      objectReference: {fileID: 0}
    - target: {fileID: 7514282602740898460, guid: 79d7c88d232401041a7cf2c8adafb877, type: 3}
      propertyPath: m_RootOrder
      value: 0
      objectReference: {fileID: 0}
    - target: {fileID: 7514282602740898460, guid: 79d7c88d232401041a7cf2c8adafb877, type: 3}
      propertyPath: m_LocalPosition.x
      value: -0.25
      objectReference: {fileID: 0}
    - target: {fileID: 7514282602740898460, guid: 79d7c88d232401041a7cf2c8adafb877, type: 3}
      propertyPath: m_LocalPosition.y
      value: -0.03097248
      objectReference: {fileID: 0}
    - target: {fileID: 7514282602740898460, guid: 79d7c88d232401041a7cf2c8adafb877, type: 3}
      propertyPath: m_LocalPosition.z
      value: 4.0899997
      objectReference: {fileID: 0}
    - target: {fileID: 7514282602740898460, guid: 79d7c88d232401041a7cf2c8adafb877, type: 3}
      propertyPath: m_LocalRotation.w
      value: 1
      objectReference: {fileID: 0}
    - target: {fileID: 7514282602740898460, guid: 79d7c88d232401041a7cf2c8adafb877, type: 3}
      propertyPath: m_LocalRotation.x
      value: -0
      objectReference: {fileID: 0}
    - target: {fileID: 7514282602740898460, guid: 79d7c88d232401041a7cf2c8adafb877, type: 3}
      propertyPath: m_LocalRotation.y
      value: -0.000000014901161
      objectReference: {fileID: 0}
    - target: {fileID: 7514282602740898460, guid: 79d7c88d232401041a7cf2c8adafb877, type: 3}
      propertyPath: m_LocalRotation.z
      value: -0
      objectReference: {fileID: 0}
    - target: {fileID: 7514282602740898460, guid: 79d7c88d232401041a7cf2c8adafb877, type: 3}
      propertyPath: m_LocalEulerAnglesHint.x
      value: 0
      objectReference: {fileID: 0}
    - target: {fileID: 7514282602740898460, guid: 79d7c88d232401041a7cf2c8adafb877, type: 3}
      propertyPath: m_LocalEulerAnglesHint.y
      value: 0
      objectReference: {fileID: 0}
    - target: {fileID: 7514282602740898460, guid: 79d7c88d232401041a7cf2c8adafb877, type: 3}
      propertyPath: m_LocalEulerAnglesHint.z
      value: 0
      objectReference: {fileID: 0}
    m_RemovedComponents: []
  m_SourcePrefab: {fileID: 100100000, guid: 79d7c88d232401041a7cf2c8adafb877, type: 3}
--- !u!4 &1690898585 stripped
Transform:
  m_CorrespondingSourceObject: {fileID: 7514282602740898460, guid: 79d7c88d232401041a7cf2c8adafb877, type: 3}
  m_PrefabInstance: {fileID: 1690898584}
  m_PrefabAsset: {fileID: 0}
--- !u!4 &1919318405 stripped
Transform:
  m_CorrespondingSourceObject: {fileID: 7514282602740898460, guid: 79d7c88d232401041a7cf2c8adafb877, type: 3}
  m_PrefabInstance: {fileID: 8053176431257044211}
  m_PrefabAsset: {fileID: 0}
--- !u!1 &1923466642
GameObject:
  m_ObjectHideFlags: 0
  m_CorrespondingSourceObject: {fileID: 0}
  m_PrefabInstance: {fileID: 0}
  m_PrefabAsset: {fileID: 0}
  serializedVersion: 6
  m_Component:
  - component: {fileID: 1923466643}
  - component: {fileID: 1923466645}
  - component: {fileID: 1923466644}
  m_Layer: 5
  m_Name: Name
  m_TagString: Untagged
  m_Icon: {fileID: 0}
  m_NavMeshLayer: 0
  m_StaticEditorFlags: 0
  m_IsActive: 1
--- !u!224 &1923466643
RectTransform:
  m_ObjectHideFlags: 0
  m_CorrespondingSourceObject: {fileID: 0}
  m_PrefabInstance: {fileID: 0}
  m_PrefabAsset: {fileID: 0}
  m_GameObject: {fileID: 1923466642}
  m_LocalRotation: {x: 0, y: 0, z: 0, w: 1}
  m_LocalPosition: {x: 0, y: 0, z: 0}
  m_LocalScale: {x: 1, y: 1, z: 1}
  m_ConstrainProportionsScale: 0
  m_Children: []
  m_Father: {fileID: 1175332864}
  m_RootOrder: 0
  m_LocalEulerAnglesHint: {x: 0, y: 0, z: 0}
  m_AnchorMin: {x: 0, y: 1}
  m_AnchorMax: {x: 1, y: 1}
  m_AnchoredPosition: {x: 0, y: 0}
  m_SizeDelta: {x: 0, y: 50}
  m_Pivot: {x: 0.5, y: 1}
--- !u!114 &1923466644
MonoBehaviour:
  m_ObjectHideFlags: 0
  m_CorrespondingSourceObject: {fileID: 0}
  m_PrefabInstance: {fileID: 0}
  m_PrefabAsset: {fileID: 0}
  m_GameObject: {fileID: 1923466642}
  m_Enabled: 1
  m_EditorHideFlags: 0
  m_Script: {fileID: 11500000, guid: 5f7201a12d95ffc409449d95f23cf332, type: 3}
  m_Name: 
  m_EditorClassIdentifier: 
  m_Material: {fileID: 0}
  m_Color: {r: 0.19607843, g: 0.19607843, b: 0.19607843, a: 1}
  m_RaycastTarget: 1
  m_RaycastPadding: {x: 0, y: 0, z: 0, w: 0}
  m_Maskable: 1
  m_OnCullStateChanged:
    m_PersistentCalls:
      m_Calls: []
  m_FontData:
    m_Font: {fileID: 10102, guid: 0000000000000000e000000000000000, type: 0}
    m_FontSize: 26
    m_FontStyle: 0
    m_BestFit: 0
    m_MinSize: 2
    m_MaxSize: 40
    m_Alignment: 4
    m_AlignByGeometry: 0
    m_RichText: 1
    m_HorizontalOverflow: 0
    m_VerticalOverflow: 0
    m_LineSpacing: 1
  m_Text: NAME
--- !u!222 &1923466645
CanvasRenderer:
  m_ObjectHideFlags: 0
  m_CorrespondingSourceObject: {fileID: 0}
  m_PrefabInstance: {fileID: 0}
  m_PrefabAsset: {fileID: 0}
  m_GameObject: {fileID: 1923466642}
  m_CullTransparentMesh: 1
--- !u!1 &1936444377
GameObject:
  m_ObjectHideFlags: 0
  m_CorrespondingSourceObject: {fileID: 0}
  m_PrefabInstance: {fileID: 0}
  m_PrefabAsset: {fileID: 0}
  serializedVersion: 6
  m_Component:
  - component: {fileID: 1936444378}
  - component: {fileID: 1936444380}
  - component: {fileID: 1936444379}
  m_Layer: 5
  m_Name: Panel
  m_TagString: Untagged
  m_Icon: {fileID: 0}
  m_NavMeshLayer: 0
  m_StaticEditorFlags: 0
  m_IsActive: 1
--- !u!224 &1936444378
RectTransform:
  m_ObjectHideFlags: 0
  m_CorrespondingSourceObject: {fileID: 0}
  m_PrefabInstance: {fileID: 0}
  m_PrefabAsset: {fileID: 0}
  m_GameObject: {fileID: 1936444377}
  m_LocalRotation: {x: 0, y: 0, z: 0, w: 1}
  m_LocalPosition: {x: 0, y: 0, z: 0}
  m_LocalScale: {x: 1, y: 1, z: 1}
  m_ConstrainProportionsScale: 0
  m_Children:
  - {fileID: 336222933}
  - {fileID: 888549645}
  m_Father: {fileID: 1175332864}
  m_RootOrder: 2
  m_LocalEulerAnglesHint: {x: 0, y: 0, z: 0}
  m_AnchorMin: {x: 0, y: 1}
  m_AnchorMax: {x: 1, y: 1}
  m_AnchoredPosition: {x: 0, y: -160}
  m_SizeDelta: {x: -10, y: 135}
  m_Pivot: {x: 0.5, y: 1}
--- !u!114 &1936444379
MonoBehaviour:
  m_ObjectHideFlags: 0
  m_CorrespondingSourceObject: {fileID: 0}
  m_PrefabInstance: {fileID: 0}
  m_PrefabAsset: {fileID: 0}
  m_GameObject: {fileID: 1936444377}
  m_Enabled: 1
  m_EditorHideFlags: 0
  m_Script: {fileID: 11500000, guid: fe87c0e1cc204ed48ad3b37840f39efc, type: 3}
  m_Name: 
  m_EditorClassIdentifier: 
  m_Material: {fileID: 0}
  m_Color: {r: 1, g: 1, b: 1, a: 0.392}
  m_RaycastTarget: 1
  m_RaycastPadding: {x: 0, y: 0, z: 0, w: 0}
  m_Maskable: 1
  m_OnCullStateChanged:
    m_PersistentCalls:
      m_Calls: []
  m_Sprite: {fileID: 10907, guid: 0000000000000000f000000000000000, type: 0}
  m_Type: 1
  m_PreserveAspect: 0
  m_FillCenter: 1
  m_FillMethod: 4
  m_FillAmount: 1
  m_FillClockwise: 1
  m_FillOrigin: 0
  m_UseSpriteMesh: 0
  m_PixelsPerUnitMultiplier: 1
--- !u!222 &1936444380
CanvasRenderer:
  m_ObjectHideFlags: 0
  m_CorrespondingSourceObject: {fileID: 0}
  m_PrefabInstance: {fileID: 0}
  m_PrefabAsset: {fileID: 0}
  m_GameObject: {fileID: 1936444377}
  m_CullTransparentMesh: 1
--- !u!1001 &2002626037
PrefabInstance:
  m_ObjectHideFlags: 0
  serializedVersion: 2
  m_Modification:
    m_TransformParent: {fileID: 418989262}
    m_Modifications:
    - target: {fileID: 7134766800129261606, guid: 79d7c88d232401041a7cf2c8adafb877, type: 3}
      propertyPath: m_Name
      value: Rack Variant
      objectReference: {fileID: 0}
    - target: {fileID: 7514282602740898460, guid: 79d7c88d232401041a7cf2c8adafb877, type: 3}
      propertyPath: m_RootOrder
      value: 1
      objectReference: {fileID: 0}
    - target: {fileID: 7514282602740898460, guid: 79d7c88d232401041a7cf2c8adafb877, type: 3}
      propertyPath: m_LocalPosition.x
      value: -0.24999964
      objectReference: {fileID: 0}
    - target: {fileID: 7514282602740898460, guid: 79d7c88d232401041a7cf2c8adafb877, type: 3}
      propertyPath: m_LocalPosition.y
      value: -0.03097248
      objectReference: {fileID: 0}
    - target: {fileID: 7514282602740898460, guid: 79d7c88d232401041a7cf2c8adafb877, type: 3}
      propertyPath: m_LocalPosition.z
      value: 1.0899999
      objectReference: {fileID: 0}
    - target: {fileID: 7514282602740898460, guid: 79d7c88d232401041a7cf2c8adafb877, type: 3}
      propertyPath: m_LocalRotation.w
      value: 1
      objectReference: {fileID: 0}
    - target: {fileID: 7514282602740898460, guid: 79d7c88d232401041a7cf2c8adafb877, type: 3}
      propertyPath: m_LocalRotation.x
      value: -0
      objectReference: {fileID: 0}
    - target: {fileID: 7514282602740898460, guid: 79d7c88d232401041a7cf2c8adafb877, type: 3}
      propertyPath: m_LocalRotation.y
      value: -0.000000014901161
      objectReference: {fileID: 0}
    - target: {fileID: 7514282602740898460, guid: 79d7c88d232401041a7cf2c8adafb877, type: 3}
      propertyPath: m_LocalRotation.z
      value: -0
      objectReference: {fileID: 0}
    - target: {fileID: 7514282602740898460, guid: 79d7c88d232401041a7cf2c8adafb877, type: 3}
      propertyPath: m_LocalEulerAnglesHint.x
      value: 0
      objectReference: {fileID: 0}
    - target: {fileID: 7514282602740898460, guid: 79d7c88d232401041a7cf2c8adafb877, type: 3}
      propertyPath: m_LocalEulerAnglesHint.y
      value: 0
      objectReference: {fileID: 0}
    - target: {fileID: 7514282602740898460, guid: 79d7c88d232401041a7cf2c8adafb877, type: 3}
      propertyPath: m_LocalEulerAnglesHint.z
      value: 0
      objectReference: {fileID: 0}
    m_RemovedComponents: []
  m_SourcePrefab: {fileID: 100100000, guid: 79d7c88d232401041a7cf2c8adafb877, type: 3}
--- !u!4 &2002626038 stripped
Transform:
  m_CorrespondingSourceObject: {fileID: 7514282602740898460, guid: 79d7c88d232401041a7cf2c8adafb877, type: 3}
  m_PrefabInstance: {fileID: 2002626037}
  m_PrefabAsset: {fileID: 0}
--- !u!1001 &2091173232
PrefabInstance:
  m_ObjectHideFlags: 0
  serializedVersion: 2
  m_Modification:
    m_TransformParent: {fileID: 0}
    m_Modifications:
    - target: {fileID: 8974776837463427655, guid: 2a70994ccfb8c10458381d3fb3626547, type: 3}
      propertyPath: m_RootOrder
      value: 9
      objectReference: {fileID: 0}
    - target: {fileID: 8974776837463427655, guid: 2a70994ccfb8c10458381d3fb3626547, type: 3}
      propertyPath: m_LocalPosition.x
      value: 1.97
      objectReference: {fileID: 0}
    - target: {fileID: 8974776837463427655, guid: 2a70994ccfb8c10458381d3fb3626547, type: 3}
      propertyPath: m_LocalPosition.y
      value: 0.149
      objectReference: {fileID: 0}
    - target: {fileID: 8974776837463427655, guid: 2a70994ccfb8c10458381d3fb3626547, type: 3}
      propertyPath: m_LocalPosition.z
      value: -15.89
      objectReference: {fileID: 0}
    - target: {fileID: 8974776837463427655, guid: 2a70994ccfb8c10458381d3fb3626547, type: 3}
      propertyPath: m_LocalRotation.w
      value: 1
      objectReference: {fileID: 0}
    - target: {fileID: 8974776837463427655, guid: 2a70994ccfb8c10458381d3fb3626547, type: 3}
      propertyPath: m_LocalRotation.x
      value: 0
      objectReference: {fileID: 0}
    - target: {fileID: 8974776837463427655, guid: 2a70994ccfb8c10458381d3fb3626547, type: 3}
      propertyPath: m_LocalRotation.y
      value: 0
      objectReference: {fileID: 0}
    - target: {fileID: 8974776837463427655, guid: 2a70994ccfb8c10458381d3fb3626547, type: 3}
      propertyPath: m_LocalRotation.z
      value: 0
      objectReference: {fileID: 0}
    - target: {fileID: 8974776837463427655, guid: 2a70994ccfb8c10458381d3fb3626547, type: 3}
      propertyPath: m_LocalEulerAnglesHint.x
      value: 0
      objectReference: {fileID: 0}
    - target: {fileID: 8974776837463427655, guid: 2a70994ccfb8c10458381d3fb3626547, type: 3}
      propertyPath: m_LocalEulerAnglesHint.y
      value: 0
      objectReference: {fileID: 0}
    - target: {fileID: 8974776837463427655, guid: 2a70994ccfb8c10458381d3fb3626547, type: 3}
      propertyPath: m_LocalEulerAnglesHint.z
      value: 0
      objectReference: {fileID: 0}
    - target: {fileID: 8974776837463427705, guid: 2a70994ccfb8c10458381d3fb3626547, type: 3}
      propertyPath: m_Name
      value: TransporterUnit (2)
      objectReference: {fileID: 0}
    m_RemovedComponents: []
  m_SourcePrefab: {fileID: 100100000, guid: 2a70994ccfb8c10458381d3fb3626547, type: 3}
--- !u!1 &2124815720
GameObject:
  m_ObjectHideFlags: 0
  m_CorrespondingSourceObject: {fileID: 0}
  m_PrefabInstance: {fileID: 0}
  m_PrefabAsset: {fileID: 0}
  serializedVersion: 6
  m_Component:
  - component: {fileID: 2124815721}
  - component: {fileID: 2124815724}
  - component: {fileID: 2124815723}
  - component: {fileID: 2124815722}
  m_Layer: 5
  m_Name: Exit
  m_TagString: Untagged
  m_Icon: {fileID: 0}
  m_NavMeshLayer: 0
  m_StaticEditorFlags: 0
  m_IsActive: 1
--- !u!224 &2124815721
RectTransform:
  m_ObjectHideFlags: 0
  m_CorrespondingSourceObject: {fileID: 0}
  m_PrefabInstance: {fileID: 0}
  m_PrefabAsset: {fileID: 0}
  m_GameObject: {fileID: 2124815720}
  m_LocalRotation: {x: 0, y: 0, z: 0, w: 1}
  m_LocalPosition: {x: 0, y: 0, z: 0}
  m_LocalScale: {x: 1, y: 1, z: 1}
  m_ConstrainProportionsScale: 0
  m_Children:
  - {fileID: 970575386}
  m_Father: {fileID: 928590844}
  m_RootOrder: 1
  m_LocalEulerAnglesHint: {x: 0, y: 0, z: 0}
  m_AnchorMin: {x: 1, y: 1}
  m_AnchorMax: {x: 1, y: 1}
  m_AnchoredPosition: {x: 0, y: 0}
  m_SizeDelta: {x: 160, y: 30}
  m_Pivot: {x: 1, y: 1}
--- !u!114 &2124815722
MonoBehaviour:
  m_ObjectHideFlags: 0
  m_CorrespondingSourceObject: {fileID: 0}
  m_PrefabInstance: {fileID: 0}
  m_PrefabAsset: {fileID: 0}
  m_GameObject: {fileID: 2124815720}
  m_Enabled: 1
  m_EditorHideFlags: 0
  m_Script: {fileID: 11500000, guid: 4e29b1a8efbd4b44bb3f3716e73f07ff, type: 3}
  m_Name: 
  m_EditorClassIdentifier: 
  m_Navigation:
    m_Mode: 3
    m_WrapAround: 0
    m_SelectOnUp: {fileID: 0}
    m_SelectOnDown: {fileID: 0}
    m_SelectOnLeft: {fileID: 0}
    m_SelectOnRight: {fileID: 0}
  m_Transition: 1
  m_Colors:
    m_NormalColor: {r: 1, g: 1, b: 1, a: 1}
    m_HighlightedColor: {r: 0.9607843, g: 0.9607843, b: 0.9607843, a: 1}
    m_PressedColor: {r: 0.78431374, g: 0.78431374, b: 0.78431374, a: 1}
    m_SelectedColor: {r: 0.9607843, g: 0.9607843, b: 0.9607843, a: 1}
    m_DisabledColor: {r: 0.78431374, g: 0.78431374, b: 0.78431374, a: 0.5019608}
    m_ColorMultiplier: 1
    m_FadeDuration: 0.1
  m_SpriteState:
    m_HighlightedSprite: {fileID: 0}
    m_PressedSprite: {fileID: 0}
    m_SelectedSprite: {fileID: 0}
    m_DisabledSprite: {fileID: 0}
  m_AnimationTriggers:
    m_NormalTrigger: Normal
    m_HighlightedTrigger: Highlighted
    m_PressedTrigger: Pressed
    m_SelectedTrigger: Selected
    m_DisabledTrigger: Disabled
  m_Interactable: 1
  m_TargetGraphic: {fileID: 2124815723}
  m_OnClick:
    m_PersistentCalls:
      m_Calls:
      - m_Target: {fileID: 928590845}
        m_TargetAssemblyTypeName: UIMainScene, Assembly-CSharp
        m_MethodName: BackToMenu
        m_Mode: 1
        m_Arguments:
          m_ObjectArgument: {fileID: 0}
          m_ObjectArgumentAssemblyTypeName: UnityEngine.Object, UnityEngine
          m_IntArgument: 0
          m_FloatArgument: 0
          m_StringArgument: 
          m_BoolArgument: 0
        m_CallState: 2
--- !u!114 &2124815723
MonoBehaviour:
  m_ObjectHideFlags: 0
  m_CorrespondingSourceObject: {fileID: 0}
  m_PrefabInstance: {fileID: 0}
  m_PrefabAsset: {fileID: 0}
  m_GameObject: {fileID: 2124815720}
  m_Enabled: 1
  m_EditorHideFlags: 0
  m_Script: {fileID: 11500000, guid: fe87c0e1cc204ed48ad3b37840f39efc, type: 3}
  m_Name: 
  m_EditorClassIdentifier: 
  m_Material: {fileID: 0}
  m_Color: {r: 1, g: 1, b: 1, a: 1}
  m_RaycastTarget: 1
  m_RaycastPadding: {x: 0, y: 0, z: 0, w: 0}
  m_Maskable: 1
  m_OnCullStateChanged:
    m_PersistentCalls:
      m_Calls: []
  m_Sprite: {fileID: 10905, guid: 0000000000000000f000000000000000, type: 0}
  m_Type: 1
  m_PreserveAspect: 0
  m_FillCenter: 1
  m_FillMethod: 4
  m_FillAmount: 1
  m_FillClockwise: 1
  m_FillOrigin: 0
  m_UseSpriteMesh: 0
  m_PixelsPerUnitMultiplier: 1
--- !u!222 &2124815724
CanvasRenderer:
  m_ObjectHideFlags: 0
  m_CorrespondingSourceObject: {fileID: 0}
  m_PrefabInstance: {fileID: 0}
  m_PrefabAsset: {fileID: 0}
  m_GameObject: {fileID: 2124815720}
  m_CullTransparentMesh: 1
--- !u!1001 &1527948972727434739
PrefabInstance:
  m_ObjectHideFlags: 0
  serializedVersion: 2
  m_Modification:
    m_TransformParent: {fileID: 0}
    m_Modifications:
    - target: {fileID: 1047628580, guid: 2c711c53ad47b83409ac3aa71ef70768, type: 3}
      propertyPath: m_Size.x
      value: 0.00796086
      objectReference: {fileID: 0}
    - target: {fileID: 1047628580, guid: 2c711c53ad47b83409ac3aa71ef70768, type: 3}
      propertyPath: m_Size.y
      value: 1.22
      objectReference: {fileID: 0}
    - target: {fileID: 1047628580, guid: 2c711c53ad47b83409ac3aa71ef70768, type: 3}
      propertyPath: m_Size.z
      value: 0.007960852
      objectReference: {fileID: 0}
    - target: {fileID: 1047628580, guid: 2c711c53ad47b83409ac3aa71ef70768, type: 3}
      propertyPath: m_Center.x
      value: 0.0000000055879363
      objectReference: {fileID: 0}
    - target: {fileID: 1047628580, guid: 2c711c53ad47b83409ac3aa71ef70768, type: 3}
      propertyPath: m_Center.y
      value: 0.63
      objectReference: {fileID: 0}
    - target: {fileID: 1047628580, guid: 2c711c53ad47b83409ac3aa71ef70768, type: 3}
      propertyPath: m_Center.z
      value: -0.0000000032596295
      objectReference: {fileID: 0}
    - target: {fileID: 1350767642119213370, guid: 2c711c53ad47b83409ac3aa71ef70768, type: 3}
      propertyPath: m_RootOrder
      value: 12
      objectReference: {fileID: 0}
    - target: {fileID: 1350767642119213370, guid: 2c711c53ad47b83409ac3aa71ef70768, type: 3}
      propertyPath: m_LocalPosition.x
      value: -7.99
      objectReference: {fileID: 0}
    - target: {fileID: 1350767642119213370, guid: 2c711c53ad47b83409ac3aa71ef70768, type: 3}
      propertyPath: m_LocalPosition.y
      value: -0.01
      objectReference: {fileID: 0}
    - target: {fileID: 1350767642119213370, guid: 2c711c53ad47b83409ac3aa71ef70768, type: 3}
      propertyPath: m_LocalPosition.z
      value: 5.31
      objectReference: {fileID: 0}
    - target: {fileID: 1350767642119213370, guid: 2c711c53ad47b83409ac3aa71ef70768, type: 3}
      propertyPath: m_LocalRotation.w
      value: 1
      objectReference: {fileID: 0}
    - target: {fileID: 1350767642119213370, guid: 2c711c53ad47b83409ac3aa71ef70768, type: 3}
      propertyPath: m_LocalRotation.x
      value: 0
      objectReference: {fileID: 0}
    - target: {fileID: 1350767642119213370, guid: 2c711c53ad47b83409ac3aa71ef70768, type: 3}
      propertyPath: m_LocalRotation.y
      value: -0
      objectReference: {fileID: 0}
    - target: {fileID: 1350767642119213370, guid: 2c711c53ad47b83409ac3aa71ef70768, type: 3}
      propertyPath: m_LocalRotation.z
      value: -0
      objectReference: {fileID: 0}
    - target: {fileID: 1350767642119213370, guid: 2c711c53ad47b83409ac3aa71ef70768, type: 3}
      propertyPath: m_LocalEulerAnglesHint.x
      value: 0
      objectReference: {fileID: 0}
    - target: {fileID: 1350767642119213370, guid: 2c711c53ad47b83409ac3aa71ef70768, type: 3}
      propertyPath: m_LocalEulerAnglesHint.y
      value: 0
      objectReference: {fileID: 0}
    - target: {fileID: 1350767642119213370, guid: 2c711c53ad47b83409ac3aa71ef70768, type: 3}
      propertyPath: m_LocalEulerAnglesHint.z
      value: 0
      objectReference: {fileID: 0}
    - target: {fileID: 1870459146737535872, guid: 2c711c53ad47b83409ac3aa71ef70768, type: 3}
      propertyPath: m_Name
      value: DropPoint
      objectReference: {fileID: 0}
    - target: {fileID: 4745332140793179754, guid: 2c711c53ad47b83409ac3aa71ef70768, type: 3}
      propertyPath: m_LocalPosition.x
      value: -0.72
      objectReference: {fileID: 0}
    - target: {fileID: 4745332140793179754, guid: 2c711c53ad47b83409ac3aa71ef70768, type: 3}
      propertyPath: m_LocalPosition.y
      value: -0.01
      objectReference: {fileID: 0}
    - target: {fileID: 4745332140793179754, guid: 2c711c53ad47b83409ac3aa71ef70768, type: 3}
      propertyPath: m_LocalPosition.z
      value: -0.48
      objectReference: {fileID: 0}
    m_RemovedComponents: []
  m_SourcePrefab: {fileID: 100100000, guid: 2c711c53ad47b83409ac3aa71ef70768, type: 3}
--- !u!1001 &2021343319425833181
PrefabInstance:
  m_ObjectHideFlags: 0
  serializedVersion: 2
  m_Modification:
    m_TransformParent: {fileID: 0}
    m_Modifications:
    - target: {fileID: 2021343319908079529, guid: ddfb6a0cbb10de942bf5d6ccec5fca6a, type: 3}
      propertyPath: m_RootOrder
      value: 7
      objectReference: {fileID: 0}
    - target: {fileID: 2021343319908079529, guid: ddfb6a0cbb10de942bf5d6ccec5fca6a, type: 3}
      propertyPath: m_LocalPosition.x
      value: -6.69
      objectReference: {fileID: 0}
    - target: {fileID: 2021343319908079529, guid: ddfb6a0cbb10de942bf5d6ccec5fca6a, type: 3}
      propertyPath: m_LocalPosition.y
      value: 0
      objectReference: {fileID: 0}
    - target: {fileID: 2021343319908079529, guid: ddfb6a0cbb10de942bf5d6ccec5fca6a, type: 3}
      propertyPath: m_LocalPosition.z
      value: -13.46
      objectReference: {fileID: 0}
    - target: {fileID: 2021343319908079529, guid: ddfb6a0cbb10de942bf5d6ccec5fca6a, type: 3}
      propertyPath: m_LocalRotation.w
      value: 1
      objectReference: {fileID: 0}
    - target: {fileID: 2021343319908079529, guid: ddfb6a0cbb10de942bf5d6ccec5fca6a, type: 3}
      propertyPath: m_LocalRotation.x
      value: 0
      objectReference: {fileID: 0}
    - target: {fileID: 2021343319908079529, guid: ddfb6a0cbb10de942bf5d6ccec5fca6a, type: 3}
      propertyPath: m_LocalRotation.y
      value: 0
      objectReference: {fileID: 0}
    - target: {fileID: 2021343319908079529, guid: ddfb6a0cbb10de942bf5d6ccec5fca6a, type: 3}
      propertyPath: m_LocalRotation.z
      value: 0
      objectReference: {fileID: 0}
    - target: {fileID: 2021343319908079529, guid: ddfb6a0cbb10de942bf5d6ccec5fca6a, type: 3}
      propertyPath: m_LocalEulerAnglesHint.x
      value: 0
      objectReference: {fileID: 0}
    - target: {fileID: 2021343319908079529, guid: ddfb6a0cbb10de942bf5d6ccec5fca6a, type: 3}
      propertyPath: m_LocalEulerAnglesHint.y
      value: 0
      objectReference: {fileID: 0}
    - target: {fileID: 2021343319908079529, guid: ddfb6a0cbb10de942bf5d6ccec5fca6a, type: 3}
      propertyPath: m_LocalEulerAnglesHint.z
      value: 0
      objectReference: {fileID: 0}
    - target: {fileID: 2021343319908079532, guid: ddfb6a0cbb10de942bf5d6ccec5fca6a, type: 3}
      propertyPath: m_Name
      value: ResourceType2
      objectReference: {fileID: 0}
    m_RemovedComponents: []
  m_SourcePrefab: {fileID: 100100000, guid: ddfb6a0cbb10de942bf5d6ccec5fca6a, type: 3}
--- !u!1001 &6692478132632668267
PrefabInstance:
  m_ObjectHideFlags: 0
  serializedVersion: 2
  m_Modification:
    m_TransformParent: {fileID: 0}
    m_Modifications:
    - target: {fileID: 6692478133657523843, guid: ba025154ecd8a6140a4ca7d5eb0b4e01, type: 3}
      propertyPath: m_RootOrder
      value: 6
      objectReference: {fileID: 0}
    - target: {fileID: 6692478133657523843, guid: ba025154ecd8a6140a4ca7d5eb0b4e01, type: 3}
      propertyPath: m_LocalPosition.x
      value: 8.22
      objectReference: {fileID: 0}
    - target: {fileID: 6692478133657523843, guid: ba025154ecd8a6140a4ca7d5eb0b4e01, type: 3}
      propertyPath: m_LocalPosition.y
      value: 0.41
      objectReference: {fileID: 0}
    - target: {fileID: 6692478133657523843, guid: ba025154ecd8a6140a4ca7d5eb0b4e01, type: 3}
      propertyPath: m_LocalPosition.z
      value: -8.84
      objectReference: {fileID: 0}
    - target: {fileID: 6692478133657523843, guid: ba025154ecd8a6140a4ca7d5eb0b4e01, type: 3}
      propertyPath: m_LocalRotation.w
      value: 1
      objectReference: {fileID: 0}
    - target: {fileID: 6692478133657523843, guid: ba025154ecd8a6140a4ca7d5eb0b4e01, type: 3}
      propertyPath: m_LocalRotation.x
      value: 0
      objectReference: {fileID: 0}
    - target: {fileID: 6692478133657523843, guid: ba025154ecd8a6140a4ca7d5eb0b4e01, type: 3}
      propertyPath: m_LocalRotation.y
      value: 0
      objectReference: {fileID: 0}
    - target: {fileID: 6692478133657523843, guid: ba025154ecd8a6140a4ca7d5eb0b4e01, type: 3}
      propertyPath: m_LocalRotation.z
      value: 0
      objectReference: {fileID: 0}
    - target: {fileID: 6692478133657523843, guid: ba025154ecd8a6140a4ca7d5eb0b4e01, type: 3}
      propertyPath: m_LocalEulerAnglesHint.x
      value: 0
      objectReference: {fileID: 0}
    - target: {fileID: 6692478133657523843, guid: ba025154ecd8a6140a4ca7d5eb0b4e01, type: 3}
      propertyPath: m_LocalEulerAnglesHint.y
      value: 0
      objectReference: {fileID: 0}
    - target: {fileID: 6692478133657523843, guid: ba025154ecd8a6140a4ca7d5eb0b4e01, type: 3}
      propertyPath: m_LocalEulerAnglesHint.z
      value: 0
      objectReference: {fileID: 0}
    - target: {fileID: 6692478133657523852, guid: ba025154ecd8a6140a4ca7d5eb0b4e01, type: 3}
      propertyPath: m_Name
      value: ResourceType1
      objectReference: {fileID: 0}
    m_RemovedComponents: []
  m_SourcePrefab: {fileID: 100100000, guid: ba025154ecd8a6140a4ca7d5eb0b4e01, type: 3}
--- !u!1001 &8053176431257044211
PrefabInstance:
  m_ObjectHideFlags: 0
  serializedVersion: 2
  m_Modification:
    m_TransformParent: {fileID: 418989262}
    m_Modifications:
    - target: {fileID: 7134766800129261606, guid: 79d7c88d232401041a7cf2c8adafb877, type: 3}
      propertyPath: m_Name
      value: Rack
      objectReference: {fileID: 0}
    - target: {fileID: 7514282602740898460, guid: 79d7c88d232401041a7cf2c8adafb877, type: 3}
      propertyPath: m_RootOrder
      value: 0
      objectReference: {fileID: 0}
    - target: {fileID: 7514282602740898460, guid: 79d7c88d232401041a7cf2c8adafb877, type: 3}
      propertyPath: m_LocalPosition.x
      value: -0.25
      objectReference: {fileID: 0}
    - target: {fileID: 7514282602740898460, guid: 79d7c88d232401041a7cf2c8adafb877, type: 3}
      propertyPath: m_LocalPosition.y
      value: -0.03097248
      objectReference: {fileID: 0}
    - target: {fileID: 7514282602740898460, guid: 79d7c88d232401041a7cf2c8adafb877, type: 3}
      propertyPath: m_LocalPosition.z
      value: 4.0899997
      objectReference: {fileID: 0}
    - target: {fileID: 7514282602740898460, guid: 79d7c88d232401041a7cf2c8adafb877, type: 3}
      propertyPath: m_LocalRotation.w
      value: 1
      objectReference: {fileID: 0}
    - target: {fileID: 7514282602740898460, guid: 79d7c88d232401041a7cf2c8adafb877, type: 3}
      propertyPath: m_LocalRotation.x
      value: -0
      objectReference: {fileID: 0}
    - target: {fileID: 7514282602740898460, guid: 79d7c88d232401041a7cf2c8adafb877, type: 3}
      propertyPath: m_LocalRotation.y
      value: -0.000000014901161
      objectReference: {fileID: 0}
    - target: {fileID: 7514282602740898460, guid: 79d7c88d232401041a7cf2c8adafb877, type: 3}
      propertyPath: m_LocalRotation.z
      value: -0
      objectReference: {fileID: 0}
    - target: {fileID: 7514282602740898460, guid: 79d7c88d232401041a7cf2c8adafb877, type: 3}
      propertyPath: m_LocalEulerAnglesHint.x
      value: 0
      objectReference: {fileID: 0}
    - target: {fileID: 7514282602740898460, guid: 79d7c88d232401041a7cf2c8adafb877, type: 3}
      propertyPath: m_LocalEulerAnglesHint.y
      value: 0
      objectReference: {fileID: 0}
    - target: {fileID: 7514282602740898460, guid: 79d7c88d232401041a7cf2c8adafb877, type: 3}
      propertyPath: m_LocalEulerAnglesHint.z
      value: 0
      objectReference: {fileID: 0}
    m_RemovedComponents: []
  m_SourcePrefab: {fileID: 100100000, guid: 79d7c88d232401041a7cf2c8adafb877, type: 3}
--- !u!1001 &8736306309267653415
PrefabInstance:
  m_ObjectHideFlags: 0
  serializedVersion: 2
  m_Modification:
    m_TransformParent: {fileID: 0}
    m_Modifications:
    - target: {fileID: 8736306309072059435, guid: d9ab901c7fa373a4db0a71e500773730, type: 3}
      propertyPath: m_RootOrder
      value: 11
      objectReference: {fileID: 0}
    - target: {fileID: 8736306309072059435, guid: d9ab901c7fa373a4db0a71e500773730, type: 3}
      propertyPath: m_LocalPosition.x
      value: 0
      objectReference: {fileID: 0}
    - target: {fileID: 8736306309072059435, guid: d9ab901c7fa373a4db0a71e500773730, type: 3}
      propertyPath: m_LocalPosition.y
      value: 0
      objectReference: {fileID: 0}
    - target: {fileID: 8736306309072059435, guid: d9ab901c7fa373a4db0a71e500773730, type: 3}
      propertyPath: m_LocalPosition.z
      value: 0
      objectReference: {fileID: 0}
    - target: {fileID: 8736306309072059435, guid: d9ab901c7fa373a4db0a71e500773730, type: 3}
      propertyPath: m_LocalRotation.w
      value: 1
      objectReference: {fileID: 0}
    - target: {fileID: 8736306309072059435, guid: d9ab901c7fa373a4db0a71e500773730, type: 3}
      propertyPath: m_LocalRotation.x
      value: 0
      objectReference: {fileID: 0}
    - target: {fileID: 8736306309072059435, guid: d9ab901c7fa373a4db0a71e500773730, type: 3}
      propertyPath: m_LocalRotation.y
      value: 0
      objectReference: {fileID: 0}
    - target: {fileID: 8736306309072059435, guid: d9ab901c7fa373a4db0a71e500773730, type: 3}
      propertyPath: m_LocalRotation.z
      value: 0
      objectReference: {fileID: 0}
    - target: {fileID: 8736306309072059435, guid: d9ab901c7fa373a4db0a71e500773730, type: 3}
      propertyPath: m_LocalEulerAnglesHint.x
      value: 0
      objectReference: {fileID: 0}
    - target: {fileID: 8736306309072059435, guid: d9ab901c7fa373a4db0a71e500773730, type: 3}
      propertyPath: m_LocalEulerAnglesHint.y
      value: 0
      objectReference: {fileID: 0}
    - target: {fileID: 8736306309072059435, guid: d9ab901c7fa373a4db0a71e500773730, type: 3}
      propertyPath: m_LocalEulerAnglesHint.z
      value: 0
      objectReference: {fileID: 0}
    - target: {fileID: 8736306309072059436, guid: d9ab901c7fa373a4db0a71e500773730, type: 3}
      propertyPath: m_Name
      value: Marker
      objectReference: {fileID: 0}
    m_RemovedComponents: []
  m_SourcePrefab: {fileID: 100100000, guid: d9ab901c7fa373a4db0a71e500773730, type: 3}
--- !u!1001 &8974776836598981414
PrefabInstance:
  m_ObjectHideFlags: 0
  serializedVersion: 2
  m_Modification:
    m_TransformParent: {fileID: 0}
    m_Modifications:
    - target: {fileID: 8974776837463427655, guid: 2a70994ccfb8c10458381d3fb3626547, type: 3}
      propertyPath: m_RootOrder
      value: 10
      objectReference: {fileID: 0}
    - target: {fileID: 8974776837463427655, guid: 2a70994ccfb8c10458381d3fb3626547, type: 3}
      propertyPath: m_LocalPosition.x
      value: -3.54
      objectReference: {fileID: 0}
    - target: {fileID: 8974776837463427655, guid: 2a70994ccfb8c10458381d3fb3626547, type: 3}
      propertyPath: m_LocalPosition.y
      value: 0.149
      objectReference: {fileID: 0}
    - target: {fileID: 8974776837463427655, guid: 2a70994ccfb8c10458381d3fb3626547, type: 3}
      propertyPath: m_LocalPosition.z
      value: -0.89
      objectReference: {fileID: 0}
    - target: {fileID: 8974776837463427655, guid: 2a70994ccfb8c10458381d3fb3626547, type: 3}
      propertyPath: m_LocalRotation.w
      value: 1
      objectReference: {fileID: 0}
    - target: {fileID: 8974776837463427655, guid: 2a70994ccfb8c10458381d3fb3626547, type: 3}
      propertyPath: m_LocalRotation.x
      value: 0
      objectReference: {fileID: 0}
    - target: {fileID: 8974776837463427655, guid: 2a70994ccfb8c10458381d3fb3626547, type: 3}
      propertyPath: m_LocalRotation.y
      value: 0
      objectReference: {fileID: 0}
    - target: {fileID: 8974776837463427655, guid: 2a70994ccfb8c10458381d3fb3626547, type: 3}
      propertyPath: m_LocalRotation.z
      value: 0
      objectReference: {fileID: 0}
    - target: {fileID: 8974776837463427655, guid: 2a70994ccfb8c10458381d3fb3626547, type: 3}
      propertyPath: m_LocalEulerAnglesHint.x
      value: 0
      objectReference: {fileID: 0}
    - target: {fileID: 8974776837463427655, guid: 2a70994ccfb8c10458381d3fb3626547, type: 3}
      propertyPath: m_LocalEulerAnglesHint.y
      value: 0
      objectReference: {fileID: 0}
    - target: {fileID: 8974776837463427655, guid: 2a70994ccfb8c10458381d3fb3626547, type: 3}
      propertyPath: m_LocalEulerAnglesHint.z
      value: 0
      objectReference: {fileID: 0}
    - target: {fileID: 8974776837463427705, guid: 2a70994ccfb8c10458381d3fb3626547, type: 3}
      propertyPath: m_Name
      value: TransporterUnit
      objectReference: {fileID: 0}
    m_RemovedComponents: []
  m_SourcePrefab: {fileID: 100100000, guid: 2a70994ccfb8c10458381d3fb3626547, type: 3}
